EESchema Schematic File Version 2
LIBS:power
LIBS:device
LIBS:switches
LIBS:relays
LIBS:motors
LIBS:transistors
LIBS:conn
LIBS:linear
LIBS:regul
LIBS:74xx
LIBS:cmos4000
LIBS:adc-dac
LIBS:memory
LIBS:xilinx
LIBS:microcontrollers
LIBS:dsp
LIBS:microchip
LIBS:analog_switches
LIBS:motorola
LIBS:texas
LIBS:intel
LIBS:audio
LIBS:interface
LIBS:digital-audio
LIBS:philips
LIBS:display
LIBS:cypress
LIBS:siliconi
LIBS:opto
LIBS:atmel
LIBS:contrib
LIBS:valves
LIBS:SamacSys_Parts
LIBS:2019MotorDriver-cache
EELAYER 25 0
EELAYER END
$Descr A4 11693 8268
encoding utf-8
Sheet 1 1
Title "MotorDriver"
Date "2018-06-29"
Rev "1.0"
Comp "K_Kikaiken"
Comment1 "By nabeya11"
Comment2 ""
Comment3 ""
Comment4 ""
$EndDescr
$Comp
L GND #PWR01
U 1 1 5B2E48F6
P 4550 2900
F 0 "#PWR01" H 4550 2650 50  0001 C CNN
F 1 "GND" H 4550 2750 50  0000 C CNN
F 2 "" H 4550 2900 50  0001 C CNN
F 3 "" H 4550 2900 50  0001 C CNN
	1    4550 2900
	1    0    0    -1  
$EndComp
$Comp
L VCC #PWR02
U 1 1 5B2E491D
P 4550 1450
F 0 "#PWR02" H 4550 1300 50  0001 C CNN
F 1 "VCC" H 4550 1600 50  0000 C CNN
F 2 "" H 4550 1450 50  0001 C CNN
F 3 "" H 4550 1450 50  0001 C CNN
	1    4550 1450
	1    0    0    -1  
$EndComp
$Comp
L Motor_DC M1
U 1 1 5B2E4999
P 4500 2200
F 0 "M1" H 4600 2300 50  0000 L CNN
F 1 "Motor_DC" H 4600 2000 50  0000 L TNN
F 2 "Wire_Connections_Bridges:WireConnection_2.50mmDrill_LargePad" H 4500 2110 50  0001 C CNN
F 3 "" H 4500 2110 50  0001 C CNN
	1    4500 2200
	0    -1   -1   0   
$EndComp
$Comp
L Q_NMOS_GDS Q1
U 1 1 5B2E4BF6
P 3600 1750
F 0 "Q1" H 3800 1800 50  0000 L CNN
F 1 "TK100E06N1" H 3800 1700 50  0000 L CNN
F 2 "TO_SOT_Packages_THT:TO-220-3_Vertical" H 3800 1850 50  0001 C CNN
F 3 "" H 3600 1750 50  0001 C CNN
	1    3600 1750
	1    0    0    -1  
$EndComp
$Comp
L Q_NMOS_GDS Q2
U 1 1 5B2E4D1E
P 3600 2650
F 0 "Q2" H 3800 2700 50  0000 L CNN
F 1 "TK100E06N1" H 3800 2600 50  0000 L CNN
F 2 "TO_SOT_Packages_THT:TO-220-3_Vertical" H 3800 2750 50  0001 C CNN
F 3 "" H 3600 2650 50  0001 C CNN
	1    3600 2650
	1    0    0    -1  
$EndComp
$Comp
L Q_NMOS_GDS Q3
U 1 1 5B2E4DD4
P 5500 1750
F 0 "Q3" H 5700 1800 50  0000 L CNN
F 1 "TK100E06N1" H 5700 1700 50  0000 L CNN
F 2 "TO_SOT_Packages_THT:TO-220-3_Vertical" H 5700 1850 50  0001 C CNN
F 3 "" H 5500 1750 50  0001 C CNN
	1    5500 1750
	-1   0    0    -1  
$EndComp
$Comp
L Q_NMOS_GDS Q4
U 1 1 5B2E4E5C
P 5500 2650
F 0 "Q4" H 5700 2700 50  0000 L CNN
F 1 "TK100E06N1" H 5700 2600 50  0000 L CNN
F 2 "TO_SOT_Packages_THT:TO-220-3_Vertical" H 5700 2750 50  0001 C CNN
F 3 "" H 5500 2650 50  0001 C CNN
	1    5500 2650
	-1   0    0    -1  
$EndComp
$Comp
L VCC #PWR03
U 1 1 5B2E5C35
P 1950 1700
F 0 "#PWR03" H 1950 1550 50  0001 C CNN
F 1 "VCC" H 1950 1850 50  0000 C CNN
F 2 "" H 1950 1700 50  0001 C CNN
F 3 "" H 1950 1700 50  0001 C CNN
	1    1950 1700
	1    0    0    -1  
$EndComp
$Comp
L GND #PWR04
U 1 1 5B2E5C8B
P 1950 2700
F 0 "#PWR04" H 1950 2450 50  0001 C CNN
F 1 "GND" H 1950 2550 50  0000 C CNN
F 2 "" H 1950 2700 50  0001 C CNN
F 3 "" H 1950 2700 50  0001 C CNN
	1    1950 2700
	1    0    0    -1  
$EndComp
$Comp
L CP1 C1
U 1 1 5B2E5CFC
P 1950 2150
F 0 "C1" H 1975 2250 50  0000 L CNN
F 1 "220u" H 1975 2050 50  0000 L CNN
F 2 "Capacitors_SMD:CP_Elec_10x10" H 1950 2150 50  0001 C CNN
F 3 "" H 1950 2150 50  0001 C CNN
	1    1950 2150
	1    0    0    -1  
$EndComp
$Comp
L A3921KLPTR-T IC3
U 1 1 5B2E69F7
P 7650 1650
F 0 "IC3" H 8900 1950 50  0000 L CNN
F 1 "A3921KLPTR-T" H 8900 1850 50  0000 L CNN
F 2 "SamacSys_Parts:SOP65P640X120-29N" H 8900 1750 50  0001 L CNN
F 3 "https://www.allegromicro.com/~/media/Files/Datasheets/A3921-Datasheet.ashx?la=en&hash=97529A83BF6543E7B2E0B23F3CD9C54723611927" H 8900 1650 50  0001 L CNN
F 4 "IC FULL BRIDGE CTLR 28TSSOP" H 8900 1550 50  0001 L CNN "Description"
F 5 "1.2" H 8900 1450 50  0001 L CNN "Height"
F 6 "Allegro Microsystems" H 8900 1350 50  0001 L CNN "Manufacturer_Name"
F 7 "A3921KLPTR-T" H 8900 1250 50  0001 L CNN "Manufacturer_Part_Number"
F 8 "" H 8900 1150 50  0001 L CNN "RS Part Number"
F 9 "" H 8900 1050 50  0001 L CNN "RS Price/Stock"
F 10 "A3921KLPTR-T" H 8900 950 50  0001 L CNN "Arrow Part Number"
F 11 "https://www.arrow.com/en/products/a3921klptr-t/allegro-microsystems" H 8900 850 50  0001 L CNN "Arrow Price/Stock"
	1    7650 1650
	1    0    0    -1  
$EndComp
Text GLabel 3000 1750 0    60   Input ~ 0
GHA
Text GLabel 3000 2650 0    60   Input ~ 0
GLA
Text GLabel 6100 1750 2    60   Input ~ 0
GHB
Text GLabel 6100 2650 2    60   Input ~ 0
GLB
Text GLabel 7550 1850 0    50   Input ~ 0
GLB
Text GLabel 7550 2050 0    50   Input ~ 0
GHB
Text GLabel 7550 2550 0    50   Input ~ 0
GHA
Text GLabel 7550 2750 0    50   Input ~ 0
GLA
$Comp
L VCC #PWR05
U 1 1 5B360452
P 7000 3000
F 0 "#PWR05" H 7000 2850 50  0001 C CNN
F 1 "VCC" H 7000 3150 50  0000 C CNN
F 2 "" H 7000 3000 50  0001 C CNN
F 3 "" H 7000 3000 50  0001 C CNN
	1    7000 3000
	1    0    0    -1  
$EndComp
Text GLabel 3500 2200 0    60   Input ~ 0
SA
Text GLabel 5600 2200 2    60   Input ~ 0
SB
$Comp
L GND #PWR06
U 1 1 5B360A89
P 10000 2850
F 0 "#PWR06" H 10000 2600 50  0001 C CNN
F 1 "GND" H 10000 2700 50  0000 C CNN
F 2 "" H 10000 2850 50  0001 C CNN
F 3 "" H 10000 2850 50  0001 C CNN
	1    10000 2850
	1    0    0    -1  
$EndComp
Text GLabel 7000 1950 0    50   Input ~ 0
SB
Text GLabel 7000 2750 0    50   Input ~ 0
SA
$Comp
L GND #PWR07
U 1 1 5B361679
P 8350 3450
F 0 "#PWR07" H 8350 3200 50  0001 C CNN
F 1 "GND" H 8350 3300 50  0000 C CNN
F 2 "" H 8350 3450 50  0001 C CNN
F 3 "" H 8350 3450 50  0001 C CNN
	1    8350 3450
	1    0    0    -1  
$EndComp
NoConn ~ 7650 2250
NoConn ~ 9050 2650
NoConn ~ 7650 2950
Text GLabel 9400 2150 2    50   Input ~ 0
PWMH_O
Text GLabel 9400 2250 2    50   Input ~ 0
PWML_O
Text GLabel 9400 2350 2    50   Input ~ 0
SR_O
$Comp
L +5V #PWR08
U 1 1 5B3635F0
P 9900 2450
F 0 "#PWR08" H 9900 2300 50  0001 C CNN
F 1 "+5V" H 9900 2590 50  0000 C CNN
F 2 "" H 9900 2450 50  0001 C CNN
F 3 "" H 9900 2450 50  0001 C CNN
	1    9900 2450
	1    0    0    -1  
$EndComp
$Comp
L Conn_01x03 J3
U 1 1 5B3643B3
P 10750 1950
F 0 "J3" H 10750 2150 50  0000 C CNN
F 1 "ERROR" H 10750 1750 50  0000 C CNN
F 2 "Pin_Headers:Pin_Header_Straight_1x03_Pitch2.54mm" H 10750 1950 50  0001 C CNN
F 3 "" H 10750 1950 50  0001 C CNN
	1    10750 1950
	1    0    0    1   
$EndComp
$Comp
L GND #PWR09
U 1 1 5B3645EB
P 10400 2050
F 0 "#PWR09" H 10400 1800 50  0001 C CNN
F 1 "GND" H 10400 1900 50  0000 C CNN
F 2 "" H 10400 2050 50  0001 C CNN
F 3 "" H 10400 2050 50  0001 C CNN
	1    10400 2050
	1    0    0    -1  
$EndComp
Text GLabel 9400 2050 2    50   Input ~ 0
RESET
Text GLabel 9400 2550 2    50   Input ~ 0
PHASE_O
Text GLabel 6500 4950 2    50   Input ~ 0
PWMH_O
Text GLabel 5500 3900 2    50   Input ~ 0
SR_O
Text GLabel 6500 4650 2    50   Input ~ 0
PWML_O
Text GLabel 5500 3800 2    50   Input ~ 0
PHASE_O
Text GLabel 3600 3700 0    50   Input ~ 0
PHASE_I
Text GLabel 3600 4000 0    50   Input ~ 0
SR_I
Text GLabel 3600 4550 0    50   Input ~ 0
PWML_I
Text GLabel 3600 4850 0    50   Input ~ 0
PWMH_I
$Comp
L +5V #PWR010
U 1 1 5B364EB8
P 5950 3700
F 0 "#PWR010" H 5950 3550 50  0001 C CNN
F 1 "+5V" H 5950 3840 50  0000 C CNN
F 2 "" H 5950 3700 50  0001 C CNN
F 3 "" H 5950 3700 50  0001 C CNN
	1    5950 3700
	1    0    0    -1  
$EndComp
$Comp
L GNDS #PWR011
U 1 1 5B364FB4
P 3100 4750
F 0 "#PWR011" H 3100 4500 50  0001 C CNN
F 1 "GNDS" H 3100 4600 50  0000 C CNN
F 2 "" H 3100 4750 50  0001 C CNN
F 3 "" H 3100 4750 50  0001 C CNN
	1    3100 4750
	1    0    0    -1  
$EndComp
$Comp
L VCC #PWR012
U 1 1 5B360507
P 7650 1550
F 0 "#PWR012" H 7650 1400 50  0001 C CNN
F 1 "VCC" H 7650 1700 50  0000 C CNN
F 2 "" H 7650 1550 50  0001 C CNN
F 3 "" H 7650 1550 50  0001 C CNN
	1    7650 1550
	1    0    0    -1  
$EndComp
$Comp
L GND #PWR013
U 1 1 5B360C6C
P 6700 1750
F 0 "#PWR013" H 6700 1500 50  0001 C CNN
F 1 "GND" H 6700 1600 50  0000 C CNN
F 2 "" H 6700 1750 50  0001 C CNN
F 3 "" H 6700 1750 50  0001 C CNN
	1    6700 1750
	1    0    0    -1  
$EndComp
$Comp
L GND #PWR014
U 1 1 5B367FAB
P 5950 4000
F 0 "#PWR014" H 5950 3750 50  0001 C CNN
F 1 "GND" H 5950 3850 50  0000 C CNN
F 2 "" H 5950 4000 50  0001 C CNN
F 3 "" H 5950 4000 50  0001 C CNN
	1    5950 4000
	1    0    0    -1  
$EndComp
$Comp
L TLP2105(F) IC1
U 1 1 5B3688C3
P 3600 3700
F 0 "IC1" H 5350 4000 50  0000 L CNN
F 1 "TLP2105(F)" H 5350 3900 50  0000 L CNN
F 2 "SamacSys_Parts:SOIC127P600X290-8N" H 5350 3800 50  0001 L CNN
F 3 "http://toshiba.semicon-storage.com/info/docget.jsp?did=12361&prodName=TLP2105" H 5350 3700 50  0001 L CNN
F 4 "Toshiba TLP2105(F) DC Input Transistor Output Dual Optocoupler, Surface Mount, 8-Pin SOIC" H 5350 3600 50  0001 L CNN "Description"
F 5 "2.9" H 5350 3500 50  0001 L CNN "Height"
F 6 "Toshiba" H 5350 3400 50  0001 L CNN "Manufacturer_Name"
F 7 "TLP2105(F)" H 5350 3300 50  0001 L CNN "Manufacturer_Part_Number"
F 8 "8851180" H 5350 3200 50  0001 L CNN "RS Part Number"
F 9 "http://uk.rs-online.com/web/p/products/8851180" H 5350 3100 50  0001 L CNN "RS Price/Stock"
F 10 "TLP2105(F)" H 5350 3000 50  0001 L CNN "Arrow Part Number"
F 11 "http://uk.rs-online.com/web/p/products/8851180" H 5350 2900 50  0001 L CNN "Arrow Price/Stock"
	1    3600 3700
	1    0    0    -1  
$EndComp
$Comp
L TLP2105(F) IC2
U 1 1 5B368934
P 3600 4550
F 0 "IC2" H 5350 4850 50  0000 L CNN
F 1 "TLP2105(F)" H 5350 4750 50  0000 L CNN
F 2 "SamacSys_Parts:SOIC127P600X290-8N" H 5350 4650 50  0001 L CNN
F 3 "http://toshiba.semicon-storage.com/info/docget.jsp?did=12361&prodName=TLP2105" H 5350 4550 50  0001 L CNN
F 4 "Toshiba TLP2105(F) DC Input Transistor Output Dual Optocoupler, Surface Mount, 8-Pin SOIC" H 5350 4450 50  0001 L CNN "Description"
F 5 "2.9" H 5350 4350 50  0001 L CNN "Height"
F 6 "Toshiba" H 5350 4250 50  0001 L CNN "Manufacturer_Name"
F 7 "TLP2105(F)" H 5350 4150 50  0001 L CNN "Manufacturer_Part_Number"
F 8 "8851180" H 5350 4050 50  0001 L CNN "RS Part Number"
F 9 "http://uk.rs-online.com/web/p/products/8851180" H 5350 3950 50  0001 L CNN "RS Price/Stock"
F 10 "TLP2105(F)" H 5350 3850 50  0001 L CNN "Arrow Part Number"
F 11 "http://uk.rs-online.com/web/p/products/8851180" H 5350 3750 50  0001 L CNN "Arrow Price/Stock"
	1    3600 4550
	1    0    0    -1  
$EndComp
$Comp
L +5V #PWR015
U 1 1 5B368ED3
P 5950 4550
F 0 "#PWR015" H 5950 4400 50  0001 C CNN
F 1 "+5V" H 5950 4690 50  0000 C CNN
F 2 "" H 5950 4550 50  0001 C CNN
F 3 "" H 5950 4550 50  0001 C CNN
	1    5950 4550
	1    0    0    -1  
$EndComp
$Comp
L GND #PWR016
U 1 1 5B368F2E
P 5950 4850
F 0 "#PWR016" H 5950 4600 50  0001 C CNN
F 1 "GND" H 5950 4700 50  0000 C CNN
F 2 "" H 5950 4850 50  0001 C CNN
F 3 "" H 5950 4850 50  0001 C CNN
	1    5950 4850
	1    0    0    -1  
$EndComp
$Comp
L GNDS #PWR017
U 1 1 5B368F57
P 3100 3900
F 0 "#PWR017" H 3100 3650 50  0001 C CNN
F 1 "GNDS" H 3100 3750 50  0000 C CNN
F 2 "" H 3100 3900 50  0001 C CNN
F 3 "" H 3100 3900 50  0001 C CNN
	1    3100 3900
	1    0    0    -1  
$EndComp
$Comp
L R R4
U 1 1 5B36A68C
P 3450 3900
F 0 "R4" V 3530 3900 50  0000 C CNN
F 1 "100" V 3450 3900 50  0000 C CNN
F 2 "Resistors_SMD:R_0805" V 3380 3900 50  0001 C CNN
F 3 "" H 3450 3900 50  0001 C CNN
	1    3450 3900
	0    1    1    0   
$EndComp
$Comp
L R R6
U 1 1 5B36A709
P 3450 4750
F 0 "R6" V 3530 4750 50  0000 C CNN
F 1 "100" V 3450 4750 50  0000 C CNN
F 2 "Resistors_SMD:R_0805" V 3380 4750 50  0001 C CNN
F 3 "" H 3450 4750 50  0001 C CNN
	1    3450 4750
	0    1    1    0   
$EndComp
$Comp
L C C2
U 1 1 5B36B829
P 7500 3150
F 0 "C2" H 7525 3250 50  0000 L CNN
F 1 "0.1u" H 7525 3050 50  0000 L CNN
F 2 "Capacitors_SMD:C_0603" H 7538 3000 50  0001 C CNN
F 3 "" H 7500 3150 50  0001 C CNN
	1    7500 3150
	1    0    0    -1  
$EndComp
$Comp
L GND #PWR018
U 1 1 5B36B9D6
P 7500 3350
F 0 "#PWR018" H 7500 3100 50  0001 C CNN
F 1 "GND" H 7500 3200 50  0000 C CNN
F 2 "" H 7500 3350 50  0001 C CNN
F 3 "" H 7500 3350 50  0001 C CNN
	1    7500 3350
	1    0    0    -1  
$EndComp
$Comp
L C C6
U 1 1 5B36BCBD
P 9250 3000
F 0 "C6" H 9275 3100 50  0000 L CNN
F 1 "0.22uF" H 9275 2900 50  0000 L CNN
F 2 "Capacitors_SMD:C_1206" H 9288 2850 50  0001 C CNN
F 3 "" H 9250 3000 50  0001 C CNN
	1    9250 3000
	1    0    0    -1  
$EndComp
$Comp
L GND #PWR019
U 1 1 5B36C323
P 6700 2650
F 0 "#PWR019" H 6700 2400 50  0001 C CNN
F 1 "GND" H 6700 2500 50  0000 C CNN
F 2 "" H 6700 2650 50  0001 C CNN
F 3 "" H 6700 2650 50  0001 C CNN
	1    6700 2650
	1    0    0    -1  
$EndComp
Text GLabel 1500 5250 0    50   Input ~ 0
PHASE_I
Text GLabel 1450 5350 0    50   Input ~ 0
PWML_I
Text GLabel 2300 5250 2    50   Input ~ 0
SR_I
Text GLabel 2300 5350 2    50   Input ~ 0
PWMH_I
$Comp
L GNDS #PWR020
U 1 1 5B5B374D
P 2700 5150
F 0 "#PWR020" H 2700 4900 50  0001 C CNN
F 1 "GNDS" H 2700 5000 50  0000 C CNN
F 2 "" H 2700 5150 50  0001 C CNN
F 3 "" H 2700 5150 50  0001 C CNN
	1    2700 5150
	-1   0    0    -1  
$EndComp
$Comp
L C C5
U 1 1 5B5D7350
P 7150 2600
F 0 "C5" H 7175 2700 50  0000 L CNN
F 1 "0.22uF" H 7175 2500 50  0000 L CNN
F 2 "Capacitors_SMD:C_1206" H 7188 2450 50  0001 C CNN
F 3 "" H 7150 2600 50  0001 C CNN
	1    7150 2600
	-1   0    0    1   
$EndComp
Wire Wire Line
	3700 1950 3700 2450
Wire Wire Line
	3700 1450 5400 1450
Wire Wire Line
	5400 1450 5400 1550
Wire Wire Line
	5400 1950 5400 2450
Wire Wire Line
	5400 2900 5400 2850
Wire Wire Line
	3700 2900 5400 2900
Wire Wire Line
	3700 2900 3700 2850
Wire Wire Line
	3500 2200 4300 2200
Connection ~ 3700 2200
Wire Wire Line
	4800 2200 5600 2200
Connection ~ 5400 2200
Connection ~ 4550 2900
Wire Wire Line
	3700 1450 3700 1550
Connection ~ 4550 1450
Wire Wire Line
	1950 1700 1950 2000
Wire Wire Line
	1950 2300 1950 2700
Wire Wire Line
	7550 2750 7650 2750
Wire Wire Line
	7550 2050 7650 2050
Wire Wire Line
	7550 1850 7650 1850
Wire Wire Line
	7550 2550 7650 2550
Wire Wire Line
	7650 1550 7650 1650
Wire Wire Line
	9050 2750 10000 2750
Wire Wire Line
	10000 2750 10000 2850
Wire Wire Line
	7650 1750 6700 1750
Wire Wire Line
	7000 1950 7650 1950
Wire Wire Line
	9400 2250 9050 2250
Wire Wire Line
	9400 2150 9050 2150
Wire Wire Line
	9400 2550 9050 2550
Wire Wire Line
	9050 2350 9400 2350
Wire Wire Line
	9050 1850 10550 1850
Wire Wire Line
	9050 1950 10550 1950
Wire Wire Line
	9400 2050 9050 2050
Wire Wire Line
	10400 2050 10550 2050
Wire Wire Line
	3300 3900 3100 3900
Wire Wire Line
	3300 4750 3100 4750
Wire Wire Line
	5500 3700 5950 3700
Wire Wire Line
	5950 4000 5500 4000
Wire Wire Line
	5500 4550 5950 4550
Wire Wire Line
	5500 4850 5950 4850
Wire Wire Line
	7500 3300 7500 3350
Wire Wire Line
	9050 2850 9650 2850
Wire Wire Line
	9050 2950 9050 3150
Wire Wire Line
	9050 3150 9650 3150
Wire Wire Line
	7650 2350 6700 2350
Wire Wire Line
	7650 2850 7500 2850
Wire Wire Line
	7500 2850 7500 3000
Wire Wire Line
	7500 3000 7400 3000
Wire Wire Line
	7650 2650 7300 2650
Wire Wire Line
	7300 2650 7300 2750
Wire Wire Line
	7300 2750 7000 2750
Connection ~ 7150 2750
Wire Wire Line
	7150 2450 7650 2450
$Comp
L C C4
U 1 1 5B5D8D81
P 7150 2100
F 0 "C4" H 7175 2200 50  0000 L CNN
F 1 "0.22uF" H 7175 2000 50  0000 L CNN
F 2 "Capacitors_SMD:C_1206" H 7188 1950 50  0001 C CNN
F 3 "" H 7150 2100 50  0001 C CNN
	1    7150 2100
	1    0    0    -1  
$EndComp
Wire Wire Line
	7650 2150 7500 2150
Wire Wire Line
	7500 2150 7500 2250
Wire Wire Line
	7500 2250 7150 2250
Connection ~ 7150 1950
$Comp
L R R9
U 1 1 5B5DB8A9
P 9350 1750
F 0 "R9" V 9430 1750 50  0000 C CNN
F 1 "10k" V 9350 1750 50  0000 C CNN
F 2 "Resistors_SMD:R_0603" V 9280 1750 50  0001 C CNN
F 3 "" H 9350 1750 50  0001 C CNN
	1    9350 1750
	0    1    1    0   
$EndComp
$Comp
L GND #PWR021
U 1 1 5B5DBA85
P 9950 1650
F 0 "#PWR021" H 9950 1400 50  0001 C CNN
F 1 "GND" H 9950 1500 50  0000 C CNN
F 2 "" H 9950 1650 50  0001 C CNN
F 3 "" H 9950 1650 50  0001 C CNN
	1    9950 1650
	1    0    0    -1  
$EndComp
Wire Wire Line
	9050 1750 9200 1750
Wire Wire Line
	9950 1650 9800 1650
Wire Wire Line
	9800 1650 9800 1750
Wire Wire Line
	9800 1750 9500 1750
$Comp
L Screw_Terminal_01x02 J1
U 1 1 5B5F2855
P 1250 1800
F 0 "J1" H 1250 1900 50  0000 C CNN
F 1 "PWR_24V" H 1250 1600 50  0000 C CNN
F 2 "Wire_Connections_Bridges:WireConnection_2.50mmDrill_LargePad" H 1250 1800 50  0001 C CNN
F 3 "" H 1250 1800 50  0001 C CNN
	1    1250 1800
	-1   0    0    1   
$EndComp
$Comp
L VCC #PWR022
U 1 1 5B5F3030
P 1600 1700
F 0 "#PWR022" H 1600 1550 50  0001 C CNN
F 1 "VCC" H 1600 1850 50  0000 C CNN
F 2 "" H 1600 1700 50  0001 C CNN
F 3 "" H 1600 1700 50  0001 C CNN
	1    1600 1700
	1    0    0    -1  
$EndComp
$Comp
L GND #PWR023
U 1 1 5B5F3077
P 1600 1800
F 0 "#PWR023" H 1600 1550 50  0001 C CNN
F 1 "GND" H 1600 1650 50  0000 C CNN
F 2 "" H 1600 1800 50  0001 C CNN
F 3 "" H 1600 1800 50  0001 C CNN
	1    1600 1800
	1    0    0    -1  
$EndComp
Wire Wire Line
	1450 1700 1600 1700
Wire Wire Line
	1450 1800 1600 1800
$Comp
L +5V #PWR024
U 1 1 5B5F7438
P 9950 850
F 0 "#PWR024" H 9950 700 50  0001 C CNN
F 1 "+5V" H 9950 990 50  0000 C CNN
F 2 "" H 9950 850 50  0001 C CNN
F 3 "" H 9950 850 50  0001 C CNN
	1    9950 850 
	1    0    0    -1  
$EndComp
Wire Wire Line
	9950 1600 9950 1650
Wire Wire Line
	9600 1650 9050 1650
Wire Wire Line
	9950 900  9950 850 
$Comp
L R R3
U 1 1 5B64EE6F
P 3450 3800
F 0 "R3" V 3530 3800 50  0000 C CNN
F 1 "100" V 3450 3800 50  0000 C CNN
F 2 "Resistors_SMD:R_0805" V 3380 3800 50  0001 C CNN
F 3 "" H 3450 3800 50  0001 C CNN
	1    3450 3800
	0    1    1    0   
$EndComp
$Comp
L R R5
U 1 1 5B64EEC9
P 3450 4650
F 0 "R5" V 3530 4650 50  0000 C CNN
F 1 "100" V 3450 4650 50  0000 C CNN
F 2 "Resistors_SMD:R_0805" V 3380 4650 50  0001 C CNN
F 3 "" H 3450 4650 50  0001 C CNN
	1    3450 4650
	0    1    1    0   
$EndComp
Wire Wire Line
	3300 3800 3100 3800
Wire Wire Line
	3100 3800 3100 3900
Wire Wire Line
	3300 4650 3100 4650
Wire Wire Line
	3100 4650 3100 4750
$Comp
L R R1
U 1 1 5B64FEEF
P 3200 1750
F 0 "R1" V 3280 1750 50  0000 C CNN
F 1 "100" V 3200 1750 50  0000 C CNN
F 2 "Resistors_SMD:R_0805" V 3130 1750 50  0001 C CNN
F 3 "" H 3200 1750 50  0001 C CNN
	1    3200 1750
	0    1    1    0   
$EndComp
$Comp
L R R2
U 1 1 5B650121
P 3200 2650
F 0 "R2" V 3280 2650 50  0000 C CNN
F 1 "100" V 3200 2650 50  0000 C CNN
F 2 "Resistors_SMD:R_0805" V 3130 2650 50  0001 C CNN
F 3 "" H 3200 2650 50  0001 C CNN
	1    3200 2650
	0    1    1    0   
$EndComp
$Comp
L R R7
U 1 1 5B65042A
P 5900 1750
F 0 "R7" V 5980 1750 50  0000 C CNN
F 1 "100" V 5900 1750 50  0000 C CNN
F 2 "Resistors_SMD:R_0805" V 5830 1750 50  0001 C CNN
F 3 "" H 5900 1750 50  0001 C CNN
	1    5900 1750
	0    1    1    0   
$EndComp
$Comp
L R R8
U 1 1 5B650E2A
P 5900 2650
F 0 "R8" V 5980 2650 50  0000 C CNN
F 1 "100" V 5900 2650 50  0000 C CNN
F 2 "Resistors_SMD:R_0805" V 5830 2650 50  0001 C CNN
F 3 "" H 5900 2650 50  0001 C CNN
	1    5900 2650
	0    1    1    0   
$EndComp
Wire Wire Line
	3050 1750 3000 1750
Wire Wire Line
	3400 1750 3350 1750
Wire Wire Line
	3400 2650 3350 2650
Wire Wire Line
	3050 2650 3000 2650
Wire Wire Line
	5700 1750 5750 1750
Wire Wire Line
	6050 1750 6100 1750
Wire Wire Line
	6100 2650 6050 2650
Wire Wire Line
	5750 2650 5700 2650
$Comp
L R R11
U 1 1 5B658C79
P 9950 1450
F 0 "R11" V 10030 1450 50  0000 C CNN
F 1 "2k" V 9950 1450 50  0000 C CNN
F 2 "Resistors_SMD:R_0603" V 9880 1450 50  0001 C CNN
F 3 "" H 9950 1450 50  0001 C CNN
	1    9950 1450
	-1   0    0    1   
$EndComp
$Comp
L R R10
U 1 1 5B65A120
P 9950 1050
F 0 "R10" V 10030 1050 50  0000 C CNN
F 1 "10k" V 9950 1050 50  0000 C CNN
F 2 "Resistors_SMD:R_0603" V 9880 1050 50  0001 C CNN
F 3 "" H 9950 1050 50  0001 C CNN
	1    9950 1050
	-1   0    0    1   
$EndComp
Wire Wire Line
	9950 1200 9950 1300
Wire Wire Line
	9950 1250 9600 1250
Wire Wire Line
	9600 1250 9600 1650
Connection ~ 9950 1250
Text GLabel 10150 2450 2    50   Input ~ 0
RESET
$Comp
L C C7
U 1 1 5B66C200
P 9650 3000
F 0 "C7" H 9675 3100 50  0000 L CNN
F 1 "0.22uF" H 9675 2900 50  0000 L CNN
F 2 "Capacitors_SMD:C_1206" H 9688 2850 50  0001 C CNN
F 3 "" H 9650 3000 50  0001 C CNN
	1    9650 3000
	1    0    0    -1  
$EndComp
Connection ~ 9250 2850
Connection ~ 9250 3150
$Comp
L R R13
U 1 1 5B6892A8
P 10400 1650
F 0 "R13" V 10480 1650 50  0000 C CNN
F 1 "10k" V 10400 1650 50  0000 C CNN
F 2 "Resistors_SMD:R_0603" V 10330 1650 50  0001 C CNN
F 3 "" H 10400 1650 50  0001 C CNN
	1    10400 1650
	-1   0    0    1   
$EndComp
$Comp
L R R12
U 1 1 5B689356
P 10200 1650
F 0 "R12" V 10280 1650 50  0000 C CNN
F 1 "10k" V 10200 1650 50  0000 C CNN
F 2 "Resistors_SMD:R_0603" V 10130 1650 50  0001 C CNN
F 3 "" H 10200 1650 50  0001 C CNN
	1    10200 1650
	-1   0    0    1   
$EndComp
$Comp
L +5V #PWR025
U 1 1 5B68941F
P 10200 1500
F 0 "#PWR025" H 10200 1350 50  0001 C CNN
F 1 "+5V" H 10200 1640 50  0000 C CNN
F 2 "" H 10200 1500 50  0001 C CNN
F 3 "" H 10200 1500 50  0001 C CNN
	1    10200 1500
	1    0    0    -1  
$EndComp
$Comp
L +5V #PWR026
U 1 1 5B6894FA
P 10400 1500
F 0 "#PWR026" H 10400 1350 50  0001 C CNN
F 1 "+5V" H 10400 1640 50  0000 C CNN
F 2 "" H 10400 1500 50  0001 C CNN
F 3 "" H 10400 1500 50  0001 C CNN
	1    10400 1500
	1    0    0    -1  
$EndComp
Wire Wire Line
	10200 1800 10200 1850
Connection ~ 10200 1850
Wire Wire Line
	10400 1950 10400 1800
Connection ~ 10400 1950
$Comp
L C C3
U 1 1 5B68A580
P 6700 2500
F 0 "C3" H 6725 2600 50  0000 L CNN
F 1 "4.7uF" H 6725 2400 50  0000 L CNN
F 2 "Capacitors_SMD:C_0805" H 6738 2350 50  0001 C CNN
F 3 "" H 6700 2500 50  0001 C CNN
	1    6700 2500
	-1   0    0    1   
$EndComp
Wire Wire Line
	9900 2450 9050 2450
Wire Wire Line
	10100 2450 10150 2450
$Comp
L VCC #PWR027
U 1 1 5B7D57C7
P 10100 2150
F 0 "#PWR027" H 10100 2000 50  0001 C CNN
F 1 "VCC" H 10100 2300 50  0000 C CNN
F 2 "" H 10100 2150 50  0001 C CNN
F 3 "" H 10100 2150 50  0001 C CNN
	1    10100 2150
	1    0    0    -1  
$EndComp
$Comp
L R R14
U 1 1 5B7D588C
P 10100 2300
F 0 "R14" V 10180 2300 50  0000 C CNN
F 1 "33k" V 10100 2300 50  0000 C CNN
F 2 "Resistors_SMD:R_0603" V 10030 2300 50  0001 C CNN
F 3 "" H 10100 2300 50  0001 C CNN
	1    10100 2300
	-1   0    0    1   
$EndComp
$Comp
L C C8
U 1 1 5B86AAAC
P 9900 2600
F 0 "C8" H 9925 2700 50  0000 L CNN
F 1 "0.1u" H 9925 2500 50  0000 L CNN
F 2 "Capacitors_SMD:C_0603" H 9938 2450 50  0001 C CNN
F 3 "" H 9900 2600 50  0001 C CNN
	1    9900 2600
	1    0    0    -1  
$EndComp
Connection ~ 9900 2750
Connection ~ 9900 2450
Wire Wire Line
	8550 5100 8550 5350
Wire Wire Line
	8550 4350 8550 4600
Wire Wire Line
	8150 4350 8150 4600
$Comp
L GNDS #PWR028
U 1 1 5B87026A
P 8550 5350
F 0 "#PWR028" H 8550 5100 50  0001 C CNN
F 1 "GNDS" H 8550 5200 50  0000 C CNN
F 2 "" H 8550 5350 50  0001 C CNN
F 3 "" H 8550 5350 50  0001 C CNN
	1    8550 5350
	1    0    0    -1  
$EndComp
$Comp
L GND #PWR029
U 1 1 5B86FFA4
P 8550 4600
F 0 "#PWR029" H 8550 4350 50  0001 C CNN
F 1 "GND" H 8550 4450 50  0000 C CNN
F 2 "" H 8550 4600 50  0001 C CNN
F 3 "" H 8550 4600 50  0001 C CNN
	1    8550 4600
	1    0    0    -1  
$EndComp
$Comp
L PWR_FLAG #FLG030
U 1 1 5B86F1CE
P 8150 4600
F 0 "#FLG030" H 8150 4675 50  0001 C CNN
F 1 "PWR_FLAG" H 8150 4750 50  0000 C CNN
F 2 "" H 8150 4600 50  0001 C CNN
F 3 "" H 8150 4600 50  0001 C CNN
	1    8150 4600
	-1   0    0    1   
$EndComp
$Comp
L PWR_FLAG #FLG031
U 1 1 5B86F160
P 8550 5100
F 0 "#FLG031" H 8550 5175 50  0001 C CNN
F 1 "PWR_FLAG" H 8550 5250 50  0000 C CNN
F 2 "" H 8550 5100 50  0001 C CNN
F 3 "" H 8550 5100 50  0001 C CNN
	1    8550 5100
	1    0    0    -1  
$EndComp
$Comp
L PWR_FLAG #FLG032
U 1 1 5B86EB81
P 8550 4350
F 0 "#FLG032" H 8550 4425 50  0001 C CNN
F 1 "PWR_FLAG" H 8550 4500 50  0000 C CNN
F 2 "" H 8550 4350 50  0001 C CNN
F 3 "" H 8550 4350 50  0001 C CNN
	1    8550 4350
	1    0    0    -1  
$EndComp
$Comp
L VCC #PWR033
U 1 1 5B86FCE4
P 8150 4350
F 0 "#PWR033" H 8150 4200 50  0001 C CNN
F 1 "VCC" H 8150 4500 50  0000 C CNN
F 2 "" H 8150 4350 50  0001 C CNN
F 3 "" H 8150 4350 50  0001 C CNN
	1    8150 4350
	1    0    0    -1  
$EndComp
$Comp
L R R16
U 1 1 5BA26F00
P 6100 4750
F 0 "R16" V 6180 4750 50  0000 C CNN
F 1 "0" V 6100 4750 50  0000 C CNN
F 2 "Resistors_SMD:R_0603" V 6030 4750 50  0001 C CNN
F 3 "" H 6100 4750 50  0001 C CNN
	1    6100 4750
	0    1    1    0   
$EndComp
$Comp
L R R17
U 1 1 5BA28018
P 6400 4800
F 0 "R17" V 6480 4800 50  0000 C CNN
F 1 "0" V 6400 4800 50  0000 C CNN
F 2 "Resistors_SMD:R_0603" V 6330 4800 50  0001 C CNN
F 3 "" H 6400 4800 50  0001 C CNN
	1    6400 4800
	-1   0    0    1   
$EndComp
Wire Wire Line
	5500 4650 6500 4650
Connection ~ 6400 4650
Wire Wire Line
	5500 4750 5950 4750
Wire Wire Line
	6250 4750 6250 4950
Wire Wire Line
	6250 4950 6500 4950
Connection ~ 6400 4950
$Comp
L PS2801C-1-F3-A U1
U 1 1 5BA2D1ED
P 3850 5400
F 0 "U1" H 5200 5700 50  0000 L CNN
F 1 "PS2801C-1" H 5200 5600 50  0000 L CNN
F 2 "SamacSys_Parts:SOIC127P700X210-4N" H 5200 5500 50  0001 L CNN
F 3 "http://www.farnell.com/datasheets/89583.pdf" H 5200 5400 50  0001 L CNN
F 4 "NEC - PS2801C-1-F3-A - OPTOCOUPLER, TR O/P, SSOP-4" H 5200 5300 50  0001 L CNN "Description"
F 5 "2.1" H 5200 5200 50  0001 L CNN "Height"
F 6 "NEC" H 5200 5100 50  0001 L CNN "Manufacturer_Name"
F 7 "PS2801C-1-F3-A" H 5200 5000 50  0001 L CNN "Manufacturer_Part_Number"
F 8 "" H 5200 4900 50  0001 L CNN "RS Part Number"
F 9 "" H 5200 4800 50  0001 L CNN "RS Price/Stock"
F 10 "PS2801C-1-F3-A" H 5200 4700 50  0001 L CNN "Arrow Part Number"
F 11 "" H 5200 4600 50  0001 L CNN "Arrow Price/Stock"
	1    3850 5400
	1    0    0    -1  
$EndComp
$Comp
L GND #PWR034
U 1 1 5BA2E3FA
P 5500 5500
F 0 "#PWR034" H 5500 5250 50  0001 C CNN
F 1 "GND" H 5500 5350 50  0000 C CNN
F 2 "" H 5500 5500 50  0001 C CNN
F 3 "" H 5500 5500 50  0001 C CNN
	1    5500 5500
	1    0    0    -1  
$EndComp
Text GLabel 5500 5400 2    50   Input ~ 0
RESET
Wire Wire Line
	5500 5400 5350 5400
Wire Wire Line
	5500 5500 5350 5500
Wire Wire Line
	3600 5500 3850 5500
Text GLabel 3600 5500 0    50   Input ~ 0
RST_I
$Comp
L +3.3V #PWR035
U 1 1 5BA31AF1
P 3400 5400
F 0 "#PWR035" H 3400 5250 50  0001 C CNN
F 1 "+3.3V" H 3400 5540 50  0000 C CNN
F 2 "" H 3400 5400 50  0001 C CNN
F 3 "" H 3400 5400 50  0001 C CNN
	1    3400 5400
	1    0    0    -1  
$EndComp
$Comp
L +3.3V #PWR036
U 1 1 5BA356C3
P 1500 5150
F 0 "#PWR036" H 1500 5000 50  0001 C CNN
F 1 "+3.3V" H 1500 5290 50  0000 C CNN
F 2 "" H 1500 5150 50  0001 C CNN
F 3 "" H 1500 5150 50  0001 C CNN
	1    1500 5150
	1    0    0    -1  
$EndComp
Text GLabel 1500 5550 0    50   Input ~ 0
RST_I
Wire Wire Line
	1500 5150 1700 5150
Wire Wire Line
	1700 5250 1500 5250
Wire Wire Line
	1450 5350 1700 5350
Wire Wire Line
	2300 5250 2200 5250
Wire Wire Line
	2200 5350 2300 5350
Wire Wire Line
	2700 5150 2200 5150
NoConn ~ 1700 5450
$Comp
L R R15
U 1 1 5BA37416
P 3700 5400
F 0 "R15" V 3780 5400 50  0000 C CNN
F 1 "100" V 3700 5400 50  0000 C CNN
F 2 "Resistors_SMD:R_0805" V 3630 5400 50  0001 C CNN
F 3 "" H 3700 5400 50  0001 C CNN
	1    3700 5400
	0    1    1    0   
$EndComp
Wire Wire Line
	3400 5400 3550 5400
$Comp
L D D1
U 1 1 5BA3860A
P 7250 3000
F 0 "D1" H 7250 3100 50  0000 C CNN
F 1 "D" H 7250 2900 50  0000 C CNN
F 2 "Diodes_THT:D_DO-41_SOD81_P10.16mm_Horizontal" H 7250 3000 50  0001 C CNN
F 3 "" H 7250 3000 50  0001 C CNN
	1    7250 3000
	-1   0    0    1   
$EndComp
Wire Wire Line
	7000 3000 7100 3000
Connection ~ 7500 3000
NoConn ~ 2200 5450
$Comp
L Conn_02x05_Odd_Even J2
U 1 1 5BA60DD9
P 1900 5350
F 0 "J2" H 1950 5650 50  0000 C CNN
F 1 "Signal" H 1950 5050 50  0000 C CNN
F 2 "Pin_Headers:Pin_Header_Straight_2x05_Pitch2.54mm" H 1900 5350 50  0001 C CNN
F 3 "" H 1900 5350 50  0001 C CNN
	1    1900 5350
	1    0    0    -1  
$EndComp
Wire Wire Line
	1500 5550 1700 5550
$EndSCHEMATC
