G04 #@! TF.FileFunction,Copper,L1,Top,Signal*
%FSLAX46Y46*%
G04 Gerber Fmt 4.6, Leading zero omitted, Abs format (unit mm)*
G04 Created by KiCad (PCBNEW 4.0.7) date 11/03/18 14:19:37*
%MOMM*%
%LPD*%
G01*
G04 APERTURE LIST*
%ADD10C,0.150000*%
%ADD11R,1.727200X1.727200*%
%ADD12O,1.727200X1.727200*%
%ADD13R,1.200000X1.200000*%
%ADD14R,1.250000X1.000000*%
%ADD15C,1.524000*%
%ADD16R,0.900000X1.700000*%
%ADD17C,5.999480*%
%ADD18R,1.800000X1.800000*%
%ADD19O,1.800000X1.800000*%
%ADD20C,2.700000*%
%ADD21R,2.400000X2.400000*%
%ADD22C,2.400000*%
%ADD23C,6.400000*%
%ADD24R,2.500000X1.000000*%
%ADD25C,1.600000*%
%ADD26R,1.250000X0.650000*%
%ADD27R,1.475000X0.450000*%
%ADD28R,3.000000X5.000000*%
%ADD29R,1.700000X0.900000*%
%ADD30R,1.650000X0.650000*%
%ADD31R,2.200000X2.200000*%
%ADD32O,2.200000X2.200000*%
%ADD33R,0.700000X1.300000*%
%ADD34R,1.300000X0.700000*%
%ADD35R,1.000000X2.500000*%
%ADD36C,1.440000*%
%ADD37C,0.600000*%
%ADD38C,0.350000*%
%ADD39C,0.800000*%
%ADD40C,2.000000*%
%ADD41C,0.500000*%
%ADD42C,0.200000*%
%ADD43C,0.254000*%
G04 APERTURE END LIST*
D10*
X67208400Y32639000D02*
X65887600Y32639000D01*
X65887600Y32639000D02*
X65887600Y32537400D01*
X65887600Y32537400D02*
X67208400Y32537400D01*
X67208400Y32537400D02*
X67208400Y32435800D01*
X67208400Y32435800D02*
X65938400Y32435800D01*
X65938400Y32435800D02*
X65938400Y32334200D01*
X65938400Y32334200D02*
X67106800Y32334200D01*
X67106800Y32334200D02*
X67056000Y32232600D01*
X67056000Y32232600D02*
X66090800Y32232600D01*
X66090800Y32232600D02*
X66192400Y32131000D01*
X66192400Y32131000D02*
X66903600Y32131000D01*
X66903600Y32131000D02*
X66852800Y32080200D01*
X66852800Y32080200D02*
X66294000Y32080200D01*
X65938400Y33350200D02*
X65938400Y33451800D01*
X65938400Y33451800D02*
X67056000Y33451800D01*
X67056000Y33451800D02*
X67056000Y33553400D01*
X67056000Y33553400D02*
X66090800Y33553400D01*
X66090800Y33553400D02*
X66090800Y33604200D01*
X66090800Y33604200D02*
X66954400Y33604200D01*
X66954400Y33604200D02*
X66954400Y33655000D01*
X66954400Y33655000D02*
X66243200Y33655000D01*
X66243200Y33655000D02*
X66243200Y33705800D01*
X66243200Y33705800D02*
X66802000Y33705800D01*
X67259200Y33147000D02*
X65887600Y33147000D01*
X65887600Y33147000D02*
X65887600Y33248600D01*
X65887600Y33248600D02*
X67208400Y33248600D01*
X67208400Y33248600D02*
X67208400Y33350200D01*
X67208400Y33350200D02*
X65938400Y33350200D01*
X65938400Y33350200D02*
X65938400Y33401000D01*
X67310000Y33045400D02*
X65786000Y33045400D01*
X67310000Y32740600D02*
X65786000Y32740600D01*
X65786000Y32740600D02*
G75*
G03X66548000Y31978600I762000J0D01*
G01*
X66548000Y31978600D02*
G75*
G03X67310000Y32740600I0J762000D01*
G01*
X67310000Y33045400D02*
G75*
G03X66548000Y33807400I-762000J0D01*
G01*
X66548000Y33807400D02*
G75*
G03X65786000Y33045400I0J-762000D01*
G01*
X69621400Y32639000D02*
X68300600Y32639000D01*
X68300600Y32639000D02*
X68300600Y32537400D01*
X68300600Y32537400D02*
X69621400Y32537400D01*
X69621400Y32537400D02*
X69621400Y32435800D01*
X69621400Y32435800D02*
X68351400Y32435800D01*
X68351400Y32435800D02*
X68351400Y32334200D01*
X68351400Y32334200D02*
X69519800Y32334200D01*
X69519800Y32334200D02*
X69469000Y32232600D01*
X69469000Y32232600D02*
X68503800Y32232600D01*
X68503800Y32232600D02*
X68605400Y32131000D01*
X68605400Y32131000D02*
X69316600Y32131000D01*
X69316600Y32131000D02*
X69265800Y32080200D01*
X69265800Y32080200D02*
X68707000Y32080200D01*
X68351400Y33350200D02*
X68351400Y33451800D01*
X68351400Y33451800D02*
X69469000Y33451800D01*
X69469000Y33451800D02*
X69469000Y33553400D01*
X69469000Y33553400D02*
X68503800Y33553400D01*
X68503800Y33553400D02*
X68503800Y33604200D01*
X68503800Y33604200D02*
X69367400Y33604200D01*
X69367400Y33604200D02*
X69367400Y33655000D01*
X69367400Y33655000D02*
X68656200Y33655000D01*
X68656200Y33655000D02*
X68656200Y33705800D01*
X68656200Y33705800D02*
X69215000Y33705800D01*
X69672200Y33147000D02*
X68300600Y33147000D01*
X68300600Y33147000D02*
X68300600Y33248600D01*
X68300600Y33248600D02*
X69621400Y33248600D01*
X69621400Y33248600D02*
X69621400Y33350200D01*
X69621400Y33350200D02*
X68351400Y33350200D01*
X68351400Y33350200D02*
X68351400Y33401000D01*
X69723000Y33045400D02*
X68199000Y33045400D01*
X69723000Y32740600D02*
X68199000Y32740600D01*
X68199000Y32740600D02*
G75*
G03X68961000Y31978600I762000J0D01*
G01*
X68961000Y31978600D02*
G75*
G03X69723000Y32740600I0J762000D01*
G01*
X69723000Y33045400D02*
G75*
G03X68961000Y33807400I-762000J0D01*
G01*
X68961000Y33807400D02*
G75*
G03X68199000Y33045400I0J-762000D01*
G01*
X67208400Y32639000D02*
X65887600Y32639000D01*
X65887600Y32639000D02*
X65887600Y32537400D01*
X65887600Y32537400D02*
X67208400Y32537400D01*
X67208400Y32537400D02*
X67208400Y32435800D01*
X67208400Y32435800D02*
X65938400Y32435800D01*
X65938400Y32435800D02*
X65938400Y32334200D01*
X65938400Y32334200D02*
X67106800Y32334200D01*
X67106800Y32334200D02*
X67056000Y32232600D01*
X67056000Y32232600D02*
X66090800Y32232600D01*
X66090800Y32232600D02*
X66192400Y32131000D01*
X66192400Y32131000D02*
X66903600Y32131000D01*
X66903600Y32131000D02*
X66852800Y32080200D01*
X66852800Y32080200D02*
X66294000Y32080200D01*
X65938400Y33350200D02*
X65938400Y33451800D01*
X65938400Y33451800D02*
X67056000Y33451800D01*
X67056000Y33451800D02*
X67056000Y33553400D01*
X67056000Y33553400D02*
X66090800Y33553400D01*
X66090800Y33553400D02*
X66090800Y33604200D01*
X66090800Y33604200D02*
X66954400Y33604200D01*
X66954400Y33604200D02*
X66954400Y33655000D01*
X66954400Y33655000D02*
X66243200Y33655000D01*
X66243200Y33655000D02*
X66243200Y33705800D01*
X66243200Y33705800D02*
X66802000Y33705800D01*
X67259200Y33147000D02*
X65887600Y33147000D01*
X65887600Y33147000D02*
X65887600Y33248600D01*
X65887600Y33248600D02*
X67208400Y33248600D01*
X67208400Y33248600D02*
X67208400Y33350200D01*
X67208400Y33350200D02*
X65938400Y33350200D01*
X65938400Y33350200D02*
X65938400Y33401000D01*
X67310000Y33045400D02*
X65786000Y33045400D01*
X67310000Y32740600D02*
X65786000Y32740600D01*
X65786000Y32740600D02*
G75*
G03X66548000Y31978600I762000J0D01*
G01*
X66548000Y31978600D02*
G75*
G03X67310000Y32740600I0J762000D01*
G01*
X67310000Y33045400D02*
G75*
G03X66548000Y33807400I-762000J0D01*
G01*
X66548000Y33807400D02*
G75*
G03X65786000Y33045400I0J-762000D01*
G01*
X69621400Y32639000D02*
X68300600Y32639000D01*
X68300600Y32639000D02*
X68300600Y32537400D01*
X68300600Y32537400D02*
X69621400Y32537400D01*
X69621400Y32537400D02*
X69621400Y32435800D01*
X69621400Y32435800D02*
X68351400Y32435800D01*
X68351400Y32435800D02*
X68351400Y32334200D01*
X68351400Y32334200D02*
X69519800Y32334200D01*
X69519800Y32334200D02*
X69469000Y32232600D01*
X69469000Y32232600D02*
X68503800Y32232600D01*
X68503800Y32232600D02*
X68605400Y32131000D01*
X68605400Y32131000D02*
X69316600Y32131000D01*
X69316600Y32131000D02*
X69265800Y32080200D01*
X69265800Y32080200D02*
X68707000Y32080200D01*
X68351400Y33350200D02*
X68351400Y33451800D01*
X68351400Y33451800D02*
X69469000Y33451800D01*
X69469000Y33451800D02*
X69469000Y33553400D01*
X69469000Y33553400D02*
X68503800Y33553400D01*
X68503800Y33553400D02*
X68503800Y33604200D01*
X68503800Y33604200D02*
X69367400Y33604200D01*
X69367400Y33604200D02*
X69367400Y33655000D01*
X69367400Y33655000D02*
X68656200Y33655000D01*
X68656200Y33655000D02*
X68656200Y33705800D01*
X68656200Y33705800D02*
X69215000Y33705800D01*
X69672200Y33147000D02*
X68300600Y33147000D01*
X68300600Y33147000D02*
X68300600Y33248600D01*
X68300600Y33248600D02*
X69621400Y33248600D01*
X69621400Y33248600D02*
X69621400Y33350200D01*
X69621400Y33350200D02*
X68351400Y33350200D01*
X68351400Y33350200D02*
X68351400Y33401000D01*
X69723000Y33045400D02*
X68199000Y33045400D01*
X69723000Y32740600D02*
X68199000Y32740600D01*
X68199000Y32740600D02*
G75*
G03X68961000Y31978600I762000J0D01*
G01*
X68961000Y31978600D02*
G75*
G03X69723000Y32740600I0J762000D01*
G01*
X69723000Y33045400D02*
G75*
G03X68961000Y33807400I-762000J0D01*
G01*
X68961000Y33807400D02*
G75*
G03X68199000Y33045400I0J-762000D01*
G01*
X67208400Y32639000D02*
X65887600Y32639000D01*
X65887600Y32639000D02*
X65887600Y32537400D01*
X65887600Y32537400D02*
X67208400Y32537400D01*
X67208400Y32537400D02*
X67208400Y32435800D01*
X67208400Y32435800D02*
X65938400Y32435800D01*
X65938400Y32435800D02*
X65938400Y32334200D01*
X65938400Y32334200D02*
X67106800Y32334200D01*
X67106800Y32334200D02*
X67056000Y32232600D01*
X67056000Y32232600D02*
X66090800Y32232600D01*
X66090800Y32232600D02*
X66192400Y32131000D01*
X66192400Y32131000D02*
X66903600Y32131000D01*
X66903600Y32131000D02*
X66852800Y32080200D01*
X66852800Y32080200D02*
X66294000Y32080200D01*
X65938400Y33350200D02*
X65938400Y33451800D01*
X65938400Y33451800D02*
X67056000Y33451800D01*
X67056000Y33451800D02*
X67056000Y33553400D01*
X67056000Y33553400D02*
X66090800Y33553400D01*
X66090800Y33553400D02*
X66090800Y33604200D01*
X66090800Y33604200D02*
X66954400Y33604200D01*
X66954400Y33604200D02*
X66954400Y33655000D01*
X66954400Y33655000D02*
X66243200Y33655000D01*
X66243200Y33655000D02*
X66243200Y33705800D01*
X66243200Y33705800D02*
X66802000Y33705800D01*
X67259200Y33147000D02*
X65887600Y33147000D01*
X65887600Y33147000D02*
X65887600Y33248600D01*
X65887600Y33248600D02*
X67208400Y33248600D01*
X67208400Y33248600D02*
X67208400Y33350200D01*
X67208400Y33350200D02*
X65938400Y33350200D01*
X65938400Y33350200D02*
X65938400Y33401000D01*
X67310000Y33045400D02*
X65786000Y33045400D01*
X67310000Y32740600D02*
X65786000Y32740600D01*
X65786000Y32740600D02*
G75*
G03X66548000Y31978600I762000J0D01*
G01*
X66548000Y31978600D02*
G75*
G03X67310000Y32740600I0J762000D01*
G01*
X67310000Y33045400D02*
G75*
G03X66548000Y33807400I-762000J0D01*
G01*
X66548000Y33807400D02*
G75*
G03X65786000Y33045400I0J-762000D01*
G01*
X69621400Y32639000D02*
X68300600Y32639000D01*
X68300600Y32639000D02*
X68300600Y32537400D01*
X68300600Y32537400D02*
X69621400Y32537400D01*
X69621400Y32537400D02*
X69621400Y32435800D01*
X69621400Y32435800D02*
X68351400Y32435800D01*
X68351400Y32435800D02*
X68351400Y32334200D01*
X68351400Y32334200D02*
X69519800Y32334200D01*
X69519800Y32334200D02*
X69469000Y32232600D01*
X69469000Y32232600D02*
X68503800Y32232600D01*
X68503800Y32232600D02*
X68605400Y32131000D01*
X68605400Y32131000D02*
X69316600Y32131000D01*
X69316600Y32131000D02*
X69265800Y32080200D01*
X69265800Y32080200D02*
X68707000Y32080200D01*
X68351400Y33350200D02*
X68351400Y33451800D01*
X68351400Y33451800D02*
X69469000Y33451800D01*
X69469000Y33451800D02*
X69469000Y33553400D01*
X69469000Y33553400D02*
X68503800Y33553400D01*
X68503800Y33553400D02*
X68503800Y33604200D01*
X68503800Y33604200D02*
X69367400Y33604200D01*
X69367400Y33604200D02*
X69367400Y33655000D01*
X69367400Y33655000D02*
X68656200Y33655000D01*
X68656200Y33655000D02*
X68656200Y33705800D01*
X68656200Y33705800D02*
X69215000Y33705800D01*
X69672200Y33147000D02*
X68300600Y33147000D01*
X68300600Y33147000D02*
X68300600Y33248600D01*
X68300600Y33248600D02*
X69621400Y33248600D01*
X69621400Y33248600D02*
X69621400Y33350200D01*
X69621400Y33350200D02*
X68351400Y33350200D01*
X68351400Y33350200D02*
X68351400Y33401000D01*
X69723000Y33045400D02*
X68199000Y33045400D01*
X69723000Y32740600D02*
X68199000Y32740600D01*
X68199000Y32740600D02*
G75*
G03X68961000Y31978600I762000J0D01*
G01*
X68961000Y31978600D02*
G75*
G03X69723000Y32740600I0J762000D01*
G01*
X69723000Y33045400D02*
G75*
G03X68961000Y33807400I-762000J0D01*
G01*
X68961000Y33807400D02*
G75*
G03X68199000Y33045400I0J-762000D01*
G01*
X67208400Y82639000D02*
X65887600Y82639000D01*
X65887600Y82639000D02*
X65887600Y82537400D01*
X65887600Y82537400D02*
X67208400Y82537400D01*
X67208400Y82537400D02*
X67208400Y82435800D01*
X67208400Y82435800D02*
X65938400Y82435800D01*
X65938400Y82435800D02*
X65938400Y82334200D01*
X65938400Y82334200D02*
X67106800Y82334200D01*
X67106800Y82334200D02*
X67056000Y82232600D01*
X67056000Y82232600D02*
X66090800Y82232600D01*
X66090800Y82232600D02*
X66192400Y82131000D01*
X66192400Y82131000D02*
X66903600Y82131000D01*
X66903600Y82131000D02*
X66852800Y82080200D01*
X66852800Y82080200D02*
X66294000Y82080200D01*
X65938400Y83350200D02*
X65938400Y83451800D01*
X65938400Y83451800D02*
X67056000Y83451800D01*
X67056000Y83451800D02*
X67056000Y83553400D01*
X67056000Y83553400D02*
X66090800Y83553400D01*
X66090800Y83553400D02*
X66090800Y83604200D01*
X66090800Y83604200D02*
X66954400Y83604200D01*
X66954400Y83604200D02*
X66954400Y83655000D01*
X66954400Y83655000D02*
X66243200Y83655000D01*
X66243200Y83655000D02*
X66243200Y83705800D01*
X66243200Y83705800D02*
X66802000Y83705800D01*
X67259200Y83147000D02*
X65887600Y83147000D01*
X65887600Y83147000D02*
X65887600Y83248600D01*
X65887600Y83248600D02*
X67208400Y83248600D01*
X67208400Y83248600D02*
X67208400Y83350200D01*
X67208400Y83350200D02*
X65938400Y83350200D01*
X65938400Y83350200D02*
X65938400Y83401000D01*
X67310000Y83045400D02*
X65786000Y83045400D01*
X67310000Y82740600D02*
X65786000Y82740600D01*
X65786000Y82740600D02*
G75*
G03X66548000Y81978600I762000J0D01*
G01*
X66548000Y81978600D02*
G75*
G03X67310000Y82740600I0J762000D01*
G01*
X67310000Y83045400D02*
G75*
G03X66548000Y83807400I-762000J0D01*
G01*
X66548000Y83807400D02*
G75*
G03X65786000Y83045400I0J-762000D01*
G01*
X69621400Y82639000D02*
X68300600Y82639000D01*
X68300600Y82639000D02*
X68300600Y82537400D01*
X68300600Y82537400D02*
X69621400Y82537400D01*
X69621400Y82537400D02*
X69621400Y82435800D01*
X69621400Y82435800D02*
X68351400Y82435800D01*
X68351400Y82435800D02*
X68351400Y82334200D01*
X68351400Y82334200D02*
X69519800Y82334200D01*
X69519800Y82334200D02*
X69469000Y82232600D01*
X69469000Y82232600D02*
X68503800Y82232600D01*
X68503800Y82232600D02*
X68605400Y82131000D01*
X68605400Y82131000D02*
X69316600Y82131000D01*
X69316600Y82131000D02*
X69265800Y82080200D01*
X69265800Y82080200D02*
X68707000Y82080200D01*
X68351400Y83350200D02*
X68351400Y83451800D01*
X68351400Y83451800D02*
X69469000Y83451800D01*
X69469000Y83451800D02*
X69469000Y83553400D01*
X69469000Y83553400D02*
X68503800Y83553400D01*
X68503800Y83553400D02*
X68503800Y83604200D01*
X68503800Y83604200D02*
X69367400Y83604200D01*
X69367400Y83604200D02*
X69367400Y83655000D01*
X69367400Y83655000D02*
X68656200Y83655000D01*
X68656200Y83655000D02*
X68656200Y83705800D01*
X68656200Y83705800D02*
X69215000Y83705800D01*
X69672200Y83147000D02*
X68300600Y83147000D01*
X68300600Y83147000D02*
X68300600Y83248600D01*
X68300600Y83248600D02*
X69621400Y83248600D01*
X69621400Y83248600D02*
X69621400Y83350200D01*
X69621400Y83350200D02*
X68351400Y83350200D01*
X68351400Y83350200D02*
X68351400Y83401000D01*
X69723000Y83045400D02*
X68199000Y83045400D01*
X69723000Y82740600D02*
X68199000Y82740600D01*
X68199000Y82740600D02*
G75*
G03X68961000Y81978600I762000J0D01*
G01*
X68961000Y81978600D02*
G75*
G03X69723000Y82740600I0J762000D01*
G01*
X69723000Y83045400D02*
G75*
G03X68961000Y83807400I-762000J0D01*
G01*
X68961000Y83807400D02*
G75*
G03X68199000Y83045400I0J-762000D01*
G01*
D11*
X73025000Y44577000D03*
D12*
X73025000Y42037000D03*
X70485000Y44577000D03*
X70485000Y42037000D03*
X67945000Y44577000D03*
X67945000Y42037000D03*
X65405000Y44577000D03*
X65405000Y42037000D03*
X62865000Y44577000D03*
X62865000Y42037000D03*
D13*
X54948000Y42672000D03*
X52748000Y42672000D03*
D14*
X63500000Y27797000D03*
X63500000Y25797000D03*
D15*
X56819800Y27203400D03*
D16*
X74242000Y28448000D03*
X77142000Y28448000D03*
D17*
X85013800Y25552400D03*
X85013800Y15392400D03*
X6019800Y19583400D03*
X6019800Y29743400D03*
D18*
X36499800Y33553400D03*
D19*
X39039800Y33553400D03*
X41579800Y33553400D03*
D20*
X23719800Y9733400D03*
X13719800Y9733400D03*
D21*
X60883800Y6629400D03*
D22*
X60883800Y11629400D03*
D23*
X84979800Y4993400D03*
X4979800Y4993400D03*
X4979800Y44993400D03*
X84979800Y44993400D03*
D20*
X13719800Y39593400D03*
X23719800Y39593400D03*
X34039800Y39593400D03*
X44039800Y39593400D03*
X44039800Y9733400D03*
X34039800Y9733400D03*
D15*
X56819800Y29108400D03*
D21*
X73533000Y13208000D03*
D22*
X73533000Y18208000D03*
D24*
X49199800Y32894400D03*
X49199800Y29894400D03*
X49199800Y25322400D03*
X49199800Y28322400D03*
D25*
X52959000Y22352000D03*
X55459000Y22352000D03*
D26*
X72700000Y25146000D03*
X72700000Y26416000D03*
X72700000Y27686000D03*
X72700000Y28956000D03*
X67000000Y28956000D03*
X67000000Y27686000D03*
X67000000Y26416000D03*
X67000000Y25146000D03*
X77145000Y30861000D03*
X77145000Y32131000D03*
X77145000Y33401000D03*
X77145000Y34671000D03*
X71445000Y34671000D03*
X71445000Y33401000D03*
X71445000Y32131000D03*
X71445000Y30861000D03*
D27*
X53881800Y33333400D03*
X53881800Y32683400D03*
X53881800Y32033400D03*
X53881800Y31383400D03*
X53881800Y30733400D03*
X53881800Y30083400D03*
X53881800Y29433400D03*
X53881800Y28783400D03*
X53881800Y28133400D03*
X53881800Y27483400D03*
X53881800Y26833400D03*
X53881800Y26183400D03*
X53881800Y25533400D03*
X53881800Y24883400D03*
X59757800Y24883400D03*
X59757800Y25533400D03*
X59757800Y26183400D03*
X59757800Y26833400D03*
X59757800Y27483400D03*
X59757800Y28133400D03*
X59757800Y28783400D03*
X59757800Y29433400D03*
X59757800Y30083400D03*
X59757800Y30733400D03*
X59757800Y31383400D03*
X59757800Y32033400D03*
X59757800Y32683400D03*
X59757800Y33333400D03*
D28*
X56819800Y29108400D03*
D18*
X21259800Y15773400D03*
D19*
X18719800Y15773400D03*
X16179800Y15773400D03*
D18*
X41579800Y15773400D03*
D19*
X39039800Y15773400D03*
X36499800Y15773400D03*
D18*
X16179800Y33553400D03*
D19*
X18719800Y33553400D03*
X21259800Y33553400D03*
D16*
X24737400Y15773400D03*
X27637400Y15773400D03*
D29*
X46151800Y15847400D03*
X46151800Y18747400D03*
D16*
X74242000Y26162000D03*
X77142000Y26162000D03*
X78687000Y31750000D03*
X81587000Y31750000D03*
D29*
X79121000Y33602000D03*
X79121000Y36502000D03*
D16*
X71321000Y36830000D03*
X74221000Y36830000D03*
D30*
X69367000Y35814000D03*
X69367000Y37084000D03*
X62967000Y37084000D03*
X62967000Y35814000D03*
D31*
X52628800Y19329400D03*
D32*
X52628800Y6629400D03*
D33*
X55361800Y34950400D03*
X57261800Y34950400D03*
X52898000Y38608000D03*
X54798000Y38608000D03*
X50358000Y38608000D03*
X52258000Y38608000D03*
D34*
X62738000Y33970000D03*
X62738000Y32070000D03*
D33*
X49342000Y44958000D03*
X51242000Y44958000D03*
X49342000Y42672000D03*
X51242000Y42672000D03*
D25*
X49276000Y6731000D03*
X49276000Y11731000D03*
D35*
X57859800Y22504400D03*
X60859800Y22504400D03*
X57859800Y19481800D03*
X60859800Y19481800D03*
D10*
G36*
X65998000Y32693000D02*
X67098000Y32693000D01*
X66998000Y32093000D01*
X66098000Y32093000D01*
X65998000Y32693000D01*
X65998000Y32693000D01*
G37*
G36*
X67098000Y33093000D02*
X65998000Y33093000D01*
X66098000Y33693000D01*
X66998000Y33693000D01*
X67098000Y33093000D01*
X67098000Y33093000D01*
G37*
G36*
X68411000Y32693000D02*
X69511000Y32693000D01*
X69411000Y32093000D01*
X68511000Y32093000D01*
X68411000Y32693000D01*
X68411000Y32693000D01*
G37*
G36*
X69511000Y33093000D02*
X68411000Y33093000D01*
X68511000Y33693000D01*
X69411000Y33693000D01*
X69511000Y33093000D01*
X69511000Y33093000D01*
G37*
D13*
X54948000Y44958000D03*
X52748000Y44958000D03*
D36*
X55118000Y38608000D03*
X52578000Y38608000D03*
X50038000Y38608000D03*
D11*
X73025000Y44577000D03*
D12*
X73025000Y42037000D03*
X70485000Y44577000D03*
X70485000Y42037000D03*
X67945000Y44577000D03*
X67945000Y42037000D03*
X65405000Y44577000D03*
X65405000Y42037000D03*
X62865000Y44577000D03*
X62865000Y42037000D03*
D13*
X54948000Y42672000D03*
X52748000Y42672000D03*
D14*
X63500000Y27797000D03*
X63500000Y25797000D03*
D15*
X56819800Y27203400D03*
D16*
X74242000Y28448000D03*
X77142000Y28448000D03*
D17*
X85013800Y25552400D03*
X85013800Y15392400D03*
X6019800Y19583400D03*
X6019800Y29743400D03*
D18*
X36499800Y33553400D03*
D19*
X39039800Y33553400D03*
X41579800Y33553400D03*
D20*
X23719800Y9733400D03*
X13719800Y9733400D03*
D21*
X60883800Y6629400D03*
D22*
X60883800Y11629400D03*
D23*
X84979800Y4993400D03*
X4979800Y4993400D03*
X4979800Y44993400D03*
X84979800Y44993400D03*
D20*
X13719800Y39593400D03*
X23719800Y39593400D03*
X34039800Y39593400D03*
X44039800Y39593400D03*
X44039800Y9733400D03*
X34039800Y9733400D03*
D15*
X56819800Y29108400D03*
D21*
X73533000Y13208000D03*
D22*
X73533000Y18208000D03*
D24*
X49199800Y32894400D03*
X49199800Y29894400D03*
X49199800Y25322400D03*
X49199800Y28322400D03*
D25*
X52959000Y22352000D03*
X55459000Y22352000D03*
D26*
X72700000Y25146000D03*
X72700000Y26416000D03*
X72700000Y27686000D03*
X72700000Y28956000D03*
X67000000Y28956000D03*
X67000000Y27686000D03*
X67000000Y26416000D03*
X67000000Y25146000D03*
X77145000Y30861000D03*
X77145000Y32131000D03*
X77145000Y33401000D03*
X77145000Y34671000D03*
X71445000Y34671000D03*
X71445000Y33401000D03*
X71445000Y32131000D03*
X71445000Y30861000D03*
D27*
X53881800Y33333400D03*
X53881800Y32683400D03*
X53881800Y32033400D03*
X53881800Y31383400D03*
X53881800Y30733400D03*
X53881800Y30083400D03*
X53881800Y29433400D03*
X53881800Y28783400D03*
X53881800Y28133400D03*
X53881800Y27483400D03*
X53881800Y26833400D03*
X53881800Y26183400D03*
X53881800Y25533400D03*
X53881800Y24883400D03*
X59757800Y24883400D03*
X59757800Y25533400D03*
X59757800Y26183400D03*
X59757800Y26833400D03*
X59757800Y27483400D03*
X59757800Y28133400D03*
X59757800Y28783400D03*
X59757800Y29433400D03*
X59757800Y30083400D03*
X59757800Y30733400D03*
X59757800Y31383400D03*
X59757800Y32033400D03*
X59757800Y32683400D03*
X59757800Y33333400D03*
D28*
X56819800Y29108400D03*
D18*
X21259800Y15773400D03*
D19*
X18719800Y15773400D03*
X16179800Y15773400D03*
D18*
X41579800Y15773400D03*
D19*
X39039800Y15773400D03*
X36499800Y15773400D03*
D18*
X16179800Y33553400D03*
D19*
X18719800Y33553400D03*
X21259800Y33553400D03*
D16*
X24737400Y15773400D03*
X27637400Y15773400D03*
D29*
X46151800Y15847400D03*
X46151800Y18747400D03*
D16*
X74242000Y26162000D03*
X77142000Y26162000D03*
X78687000Y31750000D03*
X81587000Y31750000D03*
D29*
X79121000Y33602000D03*
X79121000Y36502000D03*
D16*
X71321000Y36830000D03*
X74221000Y36830000D03*
D30*
X69367000Y35814000D03*
X69367000Y37084000D03*
X62967000Y37084000D03*
X62967000Y35814000D03*
D31*
X52628800Y19329400D03*
D32*
X52628800Y6629400D03*
D33*
X55361800Y34950400D03*
X57261800Y34950400D03*
X52898000Y38608000D03*
X54798000Y38608000D03*
X50358000Y38608000D03*
X52258000Y38608000D03*
D34*
X62738000Y33970000D03*
X62738000Y32070000D03*
D33*
X49342000Y44958000D03*
X51242000Y44958000D03*
X49342000Y42672000D03*
X51242000Y42672000D03*
D25*
X49276000Y6731000D03*
X49276000Y11731000D03*
D35*
X57859800Y22504400D03*
X60859800Y22504400D03*
X57859800Y19481800D03*
X60859800Y19481800D03*
D10*
G36*
X65998000Y32693000D02*
X67098000Y32693000D01*
X66998000Y32093000D01*
X66098000Y32093000D01*
X65998000Y32693000D01*
X65998000Y32693000D01*
G37*
G36*
X67098000Y33093000D02*
X65998000Y33093000D01*
X66098000Y33693000D01*
X66998000Y33693000D01*
X67098000Y33093000D01*
X67098000Y33093000D01*
G37*
G36*
X68411000Y32693000D02*
X69511000Y32693000D01*
X69411000Y32093000D01*
X68511000Y32093000D01*
X68411000Y32693000D01*
X68411000Y32693000D01*
G37*
G36*
X69511000Y33093000D02*
X68411000Y33093000D01*
X68511000Y33693000D01*
X69411000Y33693000D01*
X69511000Y33093000D01*
X69511000Y33093000D01*
G37*
D13*
X54948000Y44958000D03*
X52748000Y44958000D03*
D36*
X55118000Y38608000D03*
X52578000Y38608000D03*
X50038000Y38608000D03*
D11*
X73025000Y44577000D03*
D12*
X73025000Y42037000D03*
X70485000Y44577000D03*
X70485000Y42037000D03*
X67945000Y44577000D03*
X67945000Y42037000D03*
X65405000Y44577000D03*
X65405000Y42037000D03*
X62865000Y44577000D03*
X62865000Y42037000D03*
D13*
X54948000Y42672000D03*
X52748000Y42672000D03*
D14*
X63500000Y27797000D03*
X63500000Y25797000D03*
D15*
X56819800Y27203400D03*
D16*
X74242000Y28448000D03*
X77142000Y28448000D03*
D17*
X85013800Y25552400D03*
X85013800Y15392400D03*
X6019800Y19583400D03*
X6019800Y29743400D03*
D18*
X36499800Y33553400D03*
D19*
X39039800Y33553400D03*
X41579800Y33553400D03*
D20*
X23719800Y9733400D03*
X13719800Y9733400D03*
D21*
X60883800Y6629400D03*
D22*
X60883800Y11629400D03*
D23*
X84979800Y4993400D03*
X4979800Y4993400D03*
X4979800Y44993400D03*
X84979800Y44993400D03*
D20*
X13719800Y39593400D03*
X23719800Y39593400D03*
X34039800Y39593400D03*
X44039800Y39593400D03*
X44039800Y9733400D03*
X34039800Y9733400D03*
D15*
X56819800Y29108400D03*
D21*
X73533000Y13208000D03*
D22*
X73533000Y18208000D03*
D24*
X49199800Y32894400D03*
X49199800Y29894400D03*
X49199800Y25322400D03*
X49199800Y28322400D03*
D25*
X52959000Y22352000D03*
X55459000Y22352000D03*
D26*
X72700000Y25146000D03*
X72700000Y26416000D03*
X72700000Y27686000D03*
X72700000Y28956000D03*
X67000000Y28956000D03*
X67000000Y27686000D03*
X67000000Y26416000D03*
X67000000Y25146000D03*
X77145000Y30861000D03*
X77145000Y32131000D03*
X77145000Y33401000D03*
X77145000Y34671000D03*
X71445000Y34671000D03*
X71445000Y33401000D03*
X71445000Y32131000D03*
X71445000Y30861000D03*
D27*
X53881800Y33333400D03*
X53881800Y32683400D03*
X53881800Y32033400D03*
X53881800Y31383400D03*
X53881800Y30733400D03*
X53881800Y30083400D03*
X53881800Y29433400D03*
X53881800Y28783400D03*
X53881800Y28133400D03*
X53881800Y27483400D03*
X53881800Y26833400D03*
X53881800Y26183400D03*
X53881800Y25533400D03*
X53881800Y24883400D03*
X59757800Y24883400D03*
X59757800Y25533400D03*
X59757800Y26183400D03*
X59757800Y26833400D03*
X59757800Y27483400D03*
X59757800Y28133400D03*
X59757800Y28783400D03*
X59757800Y29433400D03*
X59757800Y30083400D03*
X59757800Y30733400D03*
X59757800Y31383400D03*
X59757800Y32033400D03*
X59757800Y32683400D03*
X59757800Y33333400D03*
D28*
X56819800Y29108400D03*
D18*
X21259800Y15773400D03*
D19*
X18719800Y15773400D03*
X16179800Y15773400D03*
D18*
X41579800Y15773400D03*
D19*
X39039800Y15773400D03*
X36499800Y15773400D03*
D18*
X16179800Y33553400D03*
D19*
X18719800Y33553400D03*
X21259800Y33553400D03*
D16*
X24737400Y15773400D03*
X27637400Y15773400D03*
D29*
X46151800Y15847400D03*
X46151800Y18747400D03*
D16*
X74242000Y26162000D03*
X77142000Y26162000D03*
X78687000Y31750000D03*
X81587000Y31750000D03*
D29*
X79121000Y33602000D03*
X79121000Y36502000D03*
D16*
X71321000Y36830000D03*
X74221000Y36830000D03*
D30*
X69367000Y35814000D03*
X69367000Y37084000D03*
X62967000Y37084000D03*
X62967000Y35814000D03*
D31*
X52628800Y19329400D03*
D32*
X52628800Y6629400D03*
D33*
X55361800Y34950400D03*
X57261800Y34950400D03*
X52898000Y38608000D03*
X54798000Y38608000D03*
X50358000Y38608000D03*
X52258000Y38608000D03*
D34*
X62738000Y33970000D03*
X62738000Y32070000D03*
D33*
X49342000Y44958000D03*
X51242000Y44958000D03*
X49342000Y42672000D03*
X51242000Y42672000D03*
D25*
X49276000Y6731000D03*
X49276000Y11731000D03*
D35*
X57859800Y22504400D03*
X60859800Y22504400D03*
X57859800Y19481800D03*
X60859800Y19481800D03*
D10*
G36*
X65998000Y32693000D02*
X67098000Y32693000D01*
X66998000Y32093000D01*
X66098000Y32093000D01*
X65998000Y32693000D01*
X65998000Y32693000D01*
G37*
G36*
X67098000Y33093000D02*
X65998000Y33093000D01*
X66098000Y33693000D01*
X66998000Y33693000D01*
X67098000Y33093000D01*
X67098000Y33093000D01*
G37*
G36*
X68411000Y32693000D02*
X69511000Y32693000D01*
X69411000Y32093000D01*
X68511000Y32093000D01*
X68411000Y32693000D01*
X68411000Y32693000D01*
G37*
G36*
X69511000Y33093000D02*
X68411000Y33093000D01*
X68511000Y33693000D01*
X69411000Y33693000D01*
X69511000Y33093000D01*
X69511000Y33093000D01*
G37*
D13*
X54948000Y44958000D03*
X52748000Y44958000D03*
D36*
X55118000Y38608000D03*
X52578000Y38608000D03*
X50038000Y38608000D03*
D11*
X73025000Y94577000D03*
D12*
X73025000Y92037000D03*
X70485000Y94577000D03*
X70485000Y92037000D03*
X67945000Y94577000D03*
X67945000Y92037000D03*
X65405000Y94577000D03*
X65405000Y92037000D03*
X62865000Y94577000D03*
X62865000Y92037000D03*
D13*
X54948000Y92672000D03*
X52748000Y92672000D03*
D14*
X63500000Y77797000D03*
X63500000Y75797000D03*
D15*
X56819800Y77203400D03*
D16*
X74242000Y78448000D03*
X77142000Y78448000D03*
D17*
X85013800Y75552400D03*
X85013800Y65392400D03*
X6019800Y69583400D03*
X6019800Y79743400D03*
D18*
X36499800Y83553400D03*
D19*
X39039800Y83553400D03*
X41579800Y83553400D03*
D20*
X23719800Y59733400D03*
X13719800Y59733400D03*
D21*
X60883800Y56629400D03*
D22*
X60883800Y61629400D03*
D23*
X84979800Y54993400D03*
X4979800Y54993400D03*
X4979800Y94993400D03*
X84979800Y94993400D03*
D20*
X13719800Y89593400D03*
X23719800Y89593400D03*
X34039800Y89593400D03*
X44039800Y89593400D03*
X44039800Y59733400D03*
X34039800Y59733400D03*
D15*
X56819800Y79108400D03*
D21*
X73533000Y63208000D03*
D22*
X73533000Y68208000D03*
D24*
X49199800Y82894400D03*
X49199800Y79894400D03*
X49199800Y75322400D03*
X49199800Y78322400D03*
D25*
X52959000Y72352000D03*
X55459000Y72352000D03*
D26*
X72700000Y75146000D03*
X72700000Y76416000D03*
X72700000Y77686000D03*
X72700000Y78956000D03*
X67000000Y78956000D03*
X67000000Y77686000D03*
X67000000Y76416000D03*
X67000000Y75146000D03*
X77145000Y80861000D03*
X77145000Y82131000D03*
X77145000Y83401000D03*
X77145000Y84671000D03*
X71445000Y84671000D03*
X71445000Y83401000D03*
X71445000Y82131000D03*
X71445000Y80861000D03*
D27*
X53881800Y83333400D03*
X53881800Y82683400D03*
X53881800Y82033400D03*
X53881800Y81383400D03*
X53881800Y80733400D03*
X53881800Y80083400D03*
X53881800Y79433400D03*
X53881800Y78783400D03*
X53881800Y78133400D03*
X53881800Y77483400D03*
X53881800Y76833400D03*
X53881800Y76183400D03*
X53881800Y75533400D03*
X53881800Y74883400D03*
X59757800Y74883400D03*
X59757800Y75533400D03*
X59757800Y76183400D03*
X59757800Y76833400D03*
X59757800Y77483400D03*
X59757800Y78133400D03*
X59757800Y78783400D03*
X59757800Y79433400D03*
X59757800Y80083400D03*
X59757800Y80733400D03*
X59757800Y81383400D03*
X59757800Y82033400D03*
X59757800Y82683400D03*
X59757800Y83333400D03*
D28*
X56819800Y79108400D03*
D18*
X21259800Y65773400D03*
D19*
X18719800Y65773400D03*
X16179800Y65773400D03*
D18*
X41579800Y65773400D03*
D19*
X39039800Y65773400D03*
X36499800Y65773400D03*
D18*
X16179800Y83553400D03*
D19*
X18719800Y83553400D03*
X21259800Y83553400D03*
D16*
X24737400Y65773400D03*
X27637400Y65773400D03*
D29*
X46151800Y65847400D03*
X46151800Y68747400D03*
D16*
X74242000Y76162000D03*
X77142000Y76162000D03*
X78687000Y81750000D03*
X81587000Y81750000D03*
D29*
X79121000Y83602000D03*
X79121000Y86502000D03*
D16*
X71321000Y86830000D03*
X74221000Y86830000D03*
D30*
X69367000Y85814000D03*
X69367000Y87084000D03*
X62967000Y87084000D03*
X62967000Y85814000D03*
D31*
X52628800Y69329400D03*
D32*
X52628800Y56629400D03*
D33*
X55361800Y84950400D03*
X57261800Y84950400D03*
X52898000Y88608000D03*
X54798000Y88608000D03*
X50358000Y88608000D03*
X52258000Y88608000D03*
D34*
X62738000Y83970000D03*
X62738000Y82070000D03*
D33*
X49342000Y94958000D03*
X51242000Y94958000D03*
X49342000Y92672000D03*
X51242000Y92672000D03*
D25*
X49276000Y56731000D03*
X49276000Y61731000D03*
D35*
X57859800Y72504400D03*
X60859800Y72504400D03*
X57859800Y69481800D03*
X60859800Y69481800D03*
D10*
G36*
X65998000Y82693000D02*
X67098000Y82693000D01*
X66998000Y82093000D01*
X66098000Y82093000D01*
X65998000Y82693000D01*
X65998000Y82693000D01*
G37*
G36*
X67098000Y83093000D02*
X65998000Y83093000D01*
X66098000Y83693000D01*
X66998000Y83693000D01*
X67098000Y83093000D01*
X67098000Y83093000D01*
G37*
G36*
X68411000Y82693000D02*
X69511000Y82693000D01*
X69411000Y82093000D01*
X68511000Y82093000D01*
X68411000Y82693000D01*
X68411000Y82693000D01*
G37*
G36*
X69511000Y83093000D02*
X68411000Y83093000D01*
X68511000Y83693000D01*
X69411000Y83693000D01*
X69511000Y83093000D01*
X69511000Y83093000D01*
G37*
D13*
X54948000Y94958000D03*
X52748000Y94958000D03*
D36*
X55118000Y88608000D03*
X52578000Y88608000D03*
X50038000Y88608000D03*
D37*
X49733200Y35026600D03*
X52793900Y33820100D03*
X62738000Y32004000D03*
X49733200Y35026600D03*
X52793900Y33820100D03*
X62738000Y32004000D03*
X49733200Y35026600D03*
X52793900Y33820100D03*
X62738000Y32004000D03*
X49733200Y85026600D03*
X52793900Y83820100D03*
X62738000Y82004000D03*
X67818000Y34671000D03*
X67005200Y28956000D03*
X45974000Y34137600D03*
X63500000Y25797000D03*
X62966600Y37084000D03*
X61264800Y26187400D03*
X67818000Y34671000D03*
X67005200Y28956000D03*
X45974000Y34137600D03*
X63500000Y25797000D03*
X62966600Y37084000D03*
X61264800Y26187400D03*
X67818000Y34671000D03*
X67005200Y28956000D03*
X45974000Y34137600D03*
X63500000Y25797000D03*
X62966600Y37084000D03*
X61264800Y26187400D03*
X67818000Y84671000D03*
X67005200Y78956000D03*
X45974000Y84137600D03*
X63500000Y75797000D03*
X62966600Y87084000D03*
X61264800Y76187400D03*
X52120800Y28829000D03*
X52120800Y28829000D03*
X52120800Y28829000D03*
X52120800Y78829000D03*
X70739000Y26035000D03*
X70739000Y26035000D03*
X70739000Y26035000D03*
X70739000Y76035000D03*
X67000000Y26416000D03*
X65278000Y24765000D03*
X67000000Y26416000D03*
X65278000Y24765000D03*
X67000000Y26416000D03*
X65278000Y24765000D03*
X67000000Y76416000D03*
X65278000Y74765000D03*
X51282600Y32334200D03*
X51282600Y32334200D03*
X51282600Y32334200D03*
X51282600Y82334200D03*
X14909800Y25120600D03*
X14909800Y25120600D03*
X14909800Y25120600D03*
X14909800Y75120600D03*
X29260800Y15773400D03*
X29260800Y24130000D03*
X29260800Y15773400D03*
X29260800Y24130000D03*
X29260800Y15773400D03*
X29260800Y24130000D03*
X29260800Y65773400D03*
X29260800Y74130000D03*
X59664600Y38608000D03*
X63497460Y27805380D03*
X59664600Y38608000D03*
X63497460Y27805380D03*
X59664600Y38608000D03*
X63497460Y27805380D03*
X59664600Y88608000D03*
X63497460Y77805380D03*
X74221000Y36830000D03*
X74221000Y36830000D03*
X74221000Y36830000D03*
X74221000Y86830000D03*
D38*
X52793900Y33820100D02*
X51587400Y35026600D01*
X51587400Y35026600D02*
X49733200Y35026600D01*
X62738000Y32070000D02*
X62738000Y32004000D01*
X53881800Y33333400D02*
X53356800Y33333400D01*
X53255200Y33358800D02*
X52793900Y33820100D01*
X53483800Y33333400D02*
X53881800Y33333400D01*
X52793900Y33820100D02*
X51587400Y35026600D01*
X51587400Y35026600D02*
X49733200Y35026600D01*
X62738000Y32070000D02*
X62738000Y32004000D01*
X53881800Y33333400D02*
X53356800Y33333400D01*
X53255200Y33358800D02*
X52793900Y33820100D01*
X53483800Y33333400D02*
X53881800Y33333400D01*
X52793900Y33820100D02*
X51587400Y35026600D01*
X51587400Y35026600D02*
X49733200Y35026600D01*
X62738000Y32070000D02*
X62738000Y32004000D01*
X53881800Y33333400D02*
X53356800Y33333400D01*
X53255200Y33358800D02*
X52793900Y33820100D01*
X53483800Y33333400D02*
X53881800Y33333400D01*
X52793900Y83820100D02*
X51587400Y85026600D01*
X51587400Y85026600D02*
X49733200Y85026600D01*
X62738000Y82070000D02*
X62738000Y82004000D01*
X53881800Y83333400D02*
X53356800Y83333400D01*
X53255200Y83358800D02*
X52793900Y83820100D01*
X53483800Y83333400D02*
X53881800Y83333400D01*
X71445000Y34671000D02*
X67818000Y34671000D01*
X67005200Y28956000D02*
X67000000Y28956000D01*
X50774600Y34137600D02*
X45974000Y34137600D01*
X52228800Y32683400D02*
X53881800Y32683400D01*
X52228800Y32683400D02*
X50774600Y34137600D01*
X55361800Y34950400D02*
X54015600Y34950400D01*
X54015600Y34950400D02*
X50358000Y38608000D01*
X63500000Y26085800D02*
X63500000Y26047000D01*
X57150000Y27533600D02*
X56819800Y27203400D01*
D39*
X55361800Y34950400D02*
X55753000Y34559200D01*
X55753000Y34559200D02*
X55753000Y30175200D01*
X55753000Y30175200D02*
X56819800Y29108400D01*
D38*
X55561800Y34950400D02*
X55600600Y34950400D01*
X62966600Y37084000D02*
X62941600Y37084000D01*
X59757800Y26183400D02*
X61260800Y26183400D01*
X61260800Y26183400D02*
X61264800Y26187400D01*
X55561800Y30366400D02*
X56819800Y29108400D01*
D40*
X56388000Y28676600D02*
X56819800Y29108400D01*
D38*
X56603200Y29325000D02*
X56819800Y29108400D01*
X56819800Y28092400D02*
X56819800Y29108400D01*
D41*
X56819800Y27838400D02*
X56819800Y29108400D01*
D38*
X71445000Y34671000D02*
X67818000Y34671000D01*
X67005200Y28956000D02*
X67000000Y28956000D01*
X50774600Y34137600D02*
X45974000Y34137600D01*
X52228800Y32683400D02*
X53881800Y32683400D01*
X52228800Y32683400D02*
X50774600Y34137600D01*
X55361800Y34950400D02*
X54015600Y34950400D01*
X54015600Y34950400D02*
X50358000Y38608000D01*
X63500000Y26085800D02*
X63500000Y26047000D01*
X57150000Y27533600D02*
X56819800Y27203400D01*
D39*
X55361800Y34950400D02*
X55753000Y34559200D01*
X55753000Y34559200D02*
X55753000Y30175200D01*
X55753000Y30175200D02*
X56819800Y29108400D01*
D38*
X55561800Y34950400D02*
X55600600Y34950400D01*
X62966600Y37084000D02*
X62941600Y37084000D01*
X59757800Y26183400D02*
X61260800Y26183400D01*
X61260800Y26183400D02*
X61264800Y26187400D01*
X55561800Y30366400D02*
X56819800Y29108400D01*
D40*
X56388000Y28676600D02*
X56819800Y29108400D01*
D38*
X56603200Y29325000D02*
X56819800Y29108400D01*
X56819800Y28092400D02*
X56819800Y29108400D01*
D41*
X56819800Y27838400D02*
X56819800Y29108400D01*
D38*
X71445000Y34671000D02*
X67818000Y34671000D01*
X67005200Y28956000D02*
X67000000Y28956000D01*
X50774600Y34137600D02*
X45974000Y34137600D01*
X52228800Y32683400D02*
X53881800Y32683400D01*
X52228800Y32683400D02*
X50774600Y34137600D01*
X55361800Y34950400D02*
X54015600Y34950400D01*
X54015600Y34950400D02*
X50358000Y38608000D01*
X63500000Y26085800D02*
X63500000Y26047000D01*
X57150000Y27533600D02*
X56819800Y27203400D01*
D39*
X55361800Y34950400D02*
X55753000Y34559200D01*
X55753000Y34559200D02*
X55753000Y30175200D01*
X55753000Y30175200D02*
X56819800Y29108400D01*
D38*
X55561800Y34950400D02*
X55600600Y34950400D01*
X62966600Y37084000D02*
X62941600Y37084000D01*
X59757800Y26183400D02*
X61260800Y26183400D01*
X61260800Y26183400D02*
X61264800Y26187400D01*
X55561800Y30366400D02*
X56819800Y29108400D01*
D40*
X56388000Y28676600D02*
X56819800Y29108400D01*
D38*
X56603200Y29325000D02*
X56819800Y29108400D01*
X56819800Y28092400D02*
X56819800Y29108400D01*
D41*
X56819800Y27838400D02*
X56819800Y29108400D01*
D38*
X71445000Y84671000D02*
X67818000Y84671000D01*
X67005200Y78956000D02*
X67000000Y78956000D01*
X50774600Y84137600D02*
X45974000Y84137600D01*
X52228800Y82683400D02*
X53881800Y82683400D01*
X52228800Y82683400D02*
X50774600Y84137600D01*
X55361800Y84950400D02*
X54015600Y84950400D01*
X54015600Y84950400D02*
X50358000Y88608000D01*
X63500000Y76085800D02*
X63500000Y76047000D01*
X57150000Y77533600D02*
X56819800Y77203400D01*
D39*
X55361800Y84950400D02*
X55753000Y84559200D01*
X55753000Y84559200D02*
X55753000Y80175200D01*
X55753000Y80175200D02*
X56819800Y79108400D01*
D38*
X55561800Y84950400D02*
X55600600Y84950400D01*
X62966600Y87084000D02*
X62941600Y87084000D01*
X59757800Y76183400D02*
X61260800Y76183400D01*
X61260800Y76183400D02*
X61264800Y76187400D01*
X55561800Y80366400D02*
X56819800Y79108400D01*
D40*
X56388000Y78676600D02*
X56819800Y79108400D01*
D38*
X56603200Y79325000D02*
X56819800Y79108400D01*
X56819800Y78092400D02*
X56819800Y79108400D01*
D41*
X56819800Y77838400D02*
X56819800Y79108400D01*
D38*
X49199800Y32894400D02*
X46737400Y32894400D01*
X43586400Y29743400D02*
X37541200Y29743400D01*
X46737400Y32894400D02*
X43586400Y29743400D01*
X37565200Y29719400D02*
X37541200Y29743400D01*
D40*
X19685000Y29743400D02*
X37541200Y29743400D01*
X39039800Y31242000D02*
X39039800Y33553400D01*
X37541200Y29743400D02*
X39039800Y31242000D01*
X3479800Y29743400D02*
X19685000Y29743400D01*
X21259800Y31318200D02*
X21259800Y33553400D01*
X19685000Y29743400D02*
X21259800Y31318200D01*
D38*
X53881800Y31383400D02*
X51242800Y31383400D01*
X51242800Y31383400D02*
X49731800Y32894400D01*
X49731800Y32894400D02*
X49199800Y32894400D01*
X49199800Y32894400D02*
X46737400Y32894400D01*
X43586400Y29743400D02*
X37541200Y29743400D01*
X46737400Y32894400D02*
X43586400Y29743400D01*
X37565200Y29719400D02*
X37541200Y29743400D01*
D40*
X19685000Y29743400D02*
X37541200Y29743400D01*
X39039800Y31242000D02*
X39039800Y33553400D01*
X37541200Y29743400D02*
X39039800Y31242000D01*
X3479800Y29743400D02*
X19685000Y29743400D01*
X21259800Y31318200D02*
X21259800Y33553400D01*
X19685000Y29743400D02*
X21259800Y31318200D01*
D38*
X53881800Y31383400D02*
X51242800Y31383400D01*
X51242800Y31383400D02*
X49731800Y32894400D01*
X49731800Y32894400D02*
X49199800Y32894400D01*
X49199800Y32894400D02*
X46737400Y32894400D01*
X43586400Y29743400D02*
X37541200Y29743400D01*
X46737400Y32894400D02*
X43586400Y29743400D01*
X37565200Y29719400D02*
X37541200Y29743400D01*
D40*
X19685000Y29743400D02*
X37541200Y29743400D01*
X39039800Y31242000D02*
X39039800Y33553400D01*
X37541200Y29743400D02*
X39039800Y31242000D01*
X3479800Y29743400D02*
X19685000Y29743400D01*
X21259800Y31318200D02*
X21259800Y33553400D01*
X19685000Y29743400D02*
X21259800Y31318200D01*
D38*
X53881800Y31383400D02*
X51242800Y31383400D01*
X51242800Y31383400D02*
X49731800Y32894400D01*
X49731800Y32894400D02*
X49199800Y32894400D01*
X49199800Y82894400D02*
X46737400Y82894400D01*
X43586400Y79743400D02*
X37541200Y79743400D01*
X46737400Y82894400D02*
X43586400Y79743400D01*
X37565200Y79719400D02*
X37541200Y79743400D01*
D40*
X19685000Y79743400D02*
X37541200Y79743400D01*
X39039800Y81242000D02*
X39039800Y83553400D01*
X37541200Y79743400D02*
X39039800Y81242000D01*
X3479800Y79743400D02*
X19685000Y79743400D01*
X21259800Y81318200D02*
X21259800Y83553400D01*
X19685000Y79743400D02*
X21259800Y81318200D01*
D38*
X53881800Y81383400D02*
X51242800Y81383400D01*
X51242800Y81383400D02*
X49731800Y82894400D01*
X49731800Y82894400D02*
X49199800Y82894400D01*
X52166400Y28783400D02*
X52120800Y28829000D01*
X53881800Y28783400D02*
X52166400Y28783400D01*
X52166400Y28783400D02*
X52120800Y28829000D01*
X53881800Y28783400D02*
X52166400Y28783400D01*
X52166400Y28783400D02*
X52120800Y28829000D01*
X53881800Y28783400D02*
X52166400Y28783400D01*
X52166400Y78783400D02*
X52120800Y78829000D01*
X53881800Y78783400D02*
X52166400Y78783400D01*
X49199800Y25322400D02*
X46582200Y25322400D01*
X39039800Y20701000D02*
X39039800Y15773400D01*
X39827200Y21488400D02*
X39039800Y20701000D01*
X42748200Y21488400D02*
X39827200Y21488400D01*
X46582200Y25322400D02*
X42748200Y21488400D01*
X50747800Y25322400D02*
X49199800Y25322400D01*
X53881800Y26833400D02*
X52258800Y26833400D01*
X52258800Y26833400D02*
X50747800Y25322400D01*
D40*
X3479800Y19583400D02*
X12369800Y19583400D01*
X12369800Y19583400D02*
X16179800Y15773400D01*
D38*
X39039800Y15773400D02*
X39039800Y15519400D01*
X49199800Y25322400D02*
X46582200Y25322400D01*
X39039800Y20701000D02*
X39039800Y15773400D01*
X39827200Y21488400D02*
X39039800Y20701000D01*
X42748200Y21488400D02*
X39827200Y21488400D01*
X46582200Y25322400D02*
X42748200Y21488400D01*
X50747800Y25322400D02*
X49199800Y25322400D01*
X53881800Y26833400D02*
X52258800Y26833400D01*
X52258800Y26833400D02*
X50747800Y25322400D01*
D40*
X3479800Y19583400D02*
X12369800Y19583400D01*
X12369800Y19583400D02*
X16179800Y15773400D01*
D38*
X39039800Y15773400D02*
X39039800Y15519400D01*
X49199800Y25322400D02*
X46582200Y25322400D01*
X39039800Y20701000D02*
X39039800Y15773400D01*
X39827200Y21488400D02*
X39039800Y20701000D01*
X42748200Y21488400D02*
X39827200Y21488400D01*
X46582200Y25322400D02*
X42748200Y21488400D01*
X50747800Y25322400D02*
X49199800Y25322400D01*
X53881800Y26833400D02*
X52258800Y26833400D01*
X52258800Y26833400D02*
X50747800Y25322400D01*
D40*
X3479800Y19583400D02*
X12369800Y19583400D01*
X12369800Y19583400D02*
X16179800Y15773400D01*
D38*
X39039800Y15773400D02*
X39039800Y15519400D01*
X49199800Y75322400D02*
X46582200Y75322400D01*
X39039800Y70701000D02*
X39039800Y65773400D01*
X39827200Y71488400D02*
X39039800Y70701000D01*
X42748200Y71488400D02*
X39827200Y71488400D01*
X46582200Y75322400D02*
X42748200Y71488400D01*
X50747800Y75322400D02*
X49199800Y75322400D01*
X53881800Y76833400D02*
X52258800Y76833400D01*
X52258800Y76833400D02*
X50747800Y75322400D01*
D40*
X3479800Y69583400D02*
X12369800Y69583400D01*
X12369800Y69583400D02*
X16179800Y65773400D01*
D38*
X39039800Y65773400D02*
X39039800Y65519400D01*
X53881800Y30083400D02*
X49388800Y30083400D01*
X49388800Y30083400D02*
X49199800Y29894400D01*
X53881800Y30083400D02*
X49388800Y30083400D01*
X49388800Y30083400D02*
X49199800Y29894400D01*
X53881800Y30083400D02*
X49388800Y30083400D01*
X49388800Y30083400D02*
X49199800Y29894400D01*
X53881800Y80083400D02*
X49388800Y80083400D01*
X49388800Y80083400D02*
X49199800Y79894400D01*
X53881800Y28133400D02*
X49388800Y28133400D01*
X49388800Y28133400D02*
X49199800Y28322400D01*
X53881800Y28133400D02*
X49388800Y28133400D01*
X49388800Y28133400D02*
X49199800Y28322400D01*
X53881800Y28133400D02*
X49388800Y28133400D01*
X49388800Y28133400D02*
X49199800Y28322400D01*
X53881800Y78133400D02*
X49388800Y78133400D01*
X49388800Y78133400D02*
X49199800Y78322400D01*
X72700000Y25146000D02*
X71628000Y25146000D01*
X71628000Y25146000D02*
X70739000Y26035000D01*
X72700000Y25146000D02*
X71628000Y25146000D01*
X71628000Y25146000D02*
X70739000Y26035000D01*
X72700000Y25146000D02*
X71628000Y25146000D01*
X71628000Y25146000D02*
X70739000Y26035000D01*
X72700000Y75146000D02*
X71628000Y75146000D01*
X71628000Y75146000D02*
X70739000Y76035000D01*
X72700000Y26416000D02*
X73988000Y26416000D01*
X73988000Y26416000D02*
X74242000Y26162000D01*
D42*
X72954000Y26568400D02*
X72700000Y26314400D01*
D38*
X72700000Y26416000D02*
X73988000Y26416000D01*
X73988000Y26416000D02*
X74242000Y26162000D01*
D42*
X72954000Y26568400D02*
X72700000Y26314400D01*
D38*
X72700000Y26416000D02*
X73988000Y26416000D01*
X73988000Y26416000D02*
X74242000Y26162000D01*
D42*
X72954000Y26568400D02*
X72700000Y26314400D01*
D38*
X72700000Y76416000D02*
X73988000Y76416000D01*
X73988000Y76416000D02*
X74242000Y76162000D01*
D42*
X72954000Y76568400D02*
X72700000Y76314400D01*
D38*
X72700000Y27686000D02*
X73480000Y27686000D01*
X73480000Y27686000D02*
X74242000Y28448000D01*
X72700000Y27686000D02*
X73480000Y27686000D01*
X73480000Y27686000D02*
X74242000Y28448000D01*
X72700000Y27686000D02*
X73480000Y27686000D01*
X73480000Y27686000D02*
X74242000Y28448000D01*
X72700000Y77686000D02*
X73480000Y77686000D01*
X73480000Y77686000D02*
X74242000Y78448000D01*
X72700000Y28956000D02*
X72700000Y37790000D01*
X72700000Y37790000D02*
X68453000Y42037000D01*
X68453000Y42037000D02*
X67945000Y42037000D01*
X72700000Y28956000D02*
X72263000Y28956000D01*
X72700000Y28956000D02*
X72700000Y37790000D01*
X72700000Y37790000D02*
X68453000Y42037000D01*
X68453000Y42037000D02*
X67945000Y42037000D01*
X72700000Y28956000D02*
X72263000Y28956000D01*
X72700000Y28956000D02*
X72700000Y37790000D01*
X72700000Y37790000D02*
X68453000Y42037000D01*
X68453000Y42037000D02*
X67945000Y42037000D01*
X72700000Y28956000D02*
X72263000Y28956000D01*
X72700000Y78956000D02*
X72700000Y87790000D01*
X72700000Y87790000D02*
X68453000Y92037000D01*
X68453000Y92037000D02*
X67945000Y92037000D01*
X72700000Y78956000D02*
X72263000Y78956000D01*
X59757800Y28783400D02*
X64815600Y28783400D01*
X65913000Y27686000D02*
X67000000Y27686000D01*
X64815600Y28783400D02*
X65913000Y27686000D01*
X67000000Y27686000D02*
X66675000Y27686000D01*
X66675000Y27584400D02*
X67000000Y27584400D01*
X59757800Y28783400D02*
X64815600Y28783400D01*
X65913000Y27686000D02*
X67000000Y27686000D01*
X64815600Y28783400D02*
X65913000Y27686000D01*
X67000000Y27686000D02*
X66675000Y27686000D01*
X66675000Y27584400D02*
X67000000Y27584400D01*
X59757800Y28783400D02*
X64815600Y28783400D01*
X65913000Y27686000D02*
X67000000Y27686000D01*
X64815600Y28783400D02*
X65913000Y27686000D01*
X67000000Y27686000D02*
X66675000Y27686000D01*
X66675000Y27584400D02*
X67000000Y27584400D01*
X59757800Y78783400D02*
X64815600Y78783400D01*
X65913000Y77686000D02*
X67000000Y77686000D01*
X64815600Y78783400D02*
X65913000Y77686000D01*
X67000000Y77686000D02*
X66675000Y77686000D01*
X66675000Y77584400D02*
X67000000Y77584400D01*
X61289600Y27483400D02*
X61976000Y26797000D01*
X61976000Y26797000D02*
X61976000Y25273000D01*
X61976000Y25273000D02*
X62484000Y24765000D01*
X62484000Y24765000D02*
X65024000Y24765000D01*
X66675000Y26416000D02*
X67000000Y26416000D01*
X61289600Y27483400D02*
X59757800Y27483400D01*
X65278000Y24765000D02*
X65024000Y24765000D01*
X61289600Y27483400D02*
X61976000Y26797000D01*
X61976000Y26797000D02*
X61976000Y25273000D01*
X61976000Y25273000D02*
X62484000Y24765000D01*
X62484000Y24765000D02*
X65024000Y24765000D01*
X66675000Y26416000D02*
X67000000Y26416000D01*
X61289600Y27483400D02*
X59757800Y27483400D01*
X65278000Y24765000D02*
X65024000Y24765000D01*
X61289600Y27483400D02*
X61976000Y26797000D01*
X61976000Y26797000D02*
X61976000Y25273000D01*
X61976000Y25273000D02*
X62484000Y24765000D01*
X62484000Y24765000D02*
X65024000Y24765000D01*
X66675000Y26416000D02*
X67000000Y26416000D01*
X61289600Y27483400D02*
X59757800Y27483400D01*
X65278000Y24765000D02*
X65024000Y24765000D01*
X61289600Y77483400D02*
X61976000Y76797000D01*
X61976000Y76797000D02*
X61976000Y75273000D01*
X61976000Y75273000D02*
X62484000Y74765000D01*
X62484000Y74765000D02*
X65024000Y74765000D01*
X66675000Y76416000D02*
X67000000Y76416000D01*
X61289600Y77483400D02*
X59757800Y77483400D01*
X65278000Y74765000D02*
X65024000Y74765000D01*
X59757800Y30733400D02*
X63372400Y30733400D01*
X64135000Y33147000D02*
X63312000Y33970000D01*
X64135000Y31496000D02*
X64135000Y33147000D01*
X63372400Y30733400D02*
X64135000Y31496000D01*
X63312000Y33970000D02*
X62738000Y33970000D01*
X62738000Y33970000D02*
X62738000Y35585000D01*
X62738000Y35585000D02*
X62967000Y35814000D01*
X62779000Y35626000D02*
X62967000Y35814000D01*
X62738000Y33970000D02*
X62646200Y33970000D01*
X62941600Y35814000D02*
X62319600Y35814000D01*
X59757800Y30733400D02*
X63372400Y30733400D01*
X64135000Y33147000D02*
X63312000Y33970000D01*
X64135000Y31496000D02*
X64135000Y33147000D01*
X63372400Y30733400D02*
X64135000Y31496000D01*
X63312000Y33970000D02*
X62738000Y33970000D01*
X62738000Y33970000D02*
X62738000Y35585000D01*
X62738000Y35585000D02*
X62967000Y35814000D01*
X62779000Y35626000D02*
X62967000Y35814000D01*
X62738000Y33970000D02*
X62646200Y33970000D01*
X62941600Y35814000D02*
X62319600Y35814000D01*
X59757800Y30733400D02*
X63372400Y30733400D01*
X64135000Y33147000D02*
X63312000Y33970000D01*
X64135000Y31496000D02*
X64135000Y33147000D01*
X63372400Y30733400D02*
X64135000Y31496000D01*
X63312000Y33970000D02*
X62738000Y33970000D01*
X62738000Y33970000D02*
X62738000Y35585000D01*
X62738000Y35585000D02*
X62967000Y35814000D01*
X62779000Y35626000D02*
X62967000Y35814000D01*
X62738000Y33970000D02*
X62646200Y33970000D01*
X62941600Y35814000D02*
X62319600Y35814000D01*
X59757800Y80733400D02*
X63372400Y80733400D01*
X64135000Y83147000D02*
X63312000Y83970000D01*
X64135000Y81496000D02*
X64135000Y83147000D01*
X63372400Y80733400D02*
X64135000Y81496000D01*
X63312000Y83970000D02*
X62738000Y83970000D01*
X62738000Y83970000D02*
X62738000Y85585000D01*
X62738000Y85585000D02*
X62967000Y85814000D01*
X62779000Y85626000D02*
X62967000Y85814000D01*
X62738000Y83970000D02*
X62646200Y83970000D01*
X62941600Y85814000D02*
X62319600Y85814000D01*
X77145000Y30861000D02*
X76581000Y30861000D01*
X76581000Y30861000D02*
X75311000Y32131000D01*
X75311000Y32131000D02*
X75311000Y37973000D01*
X75311000Y37973000D02*
X73787000Y39497000D01*
X73787000Y39497000D02*
X73025000Y39497000D01*
X73025000Y39497000D02*
X70485000Y42037000D01*
X77145000Y30861000D02*
X76581000Y30861000D01*
X76581000Y30861000D02*
X75311000Y32131000D01*
X75311000Y32131000D02*
X75311000Y37973000D01*
X75311000Y37973000D02*
X73787000Y39497000D01*
X73787000Y39497000D02*
X73025000Y39497000D01*
X73025000Y39497000D02*
X70485000Y42037000D01*
X77145000Y30861000D02*
X76581000Y30861000D01*
X76581000Y30861000D02*
X75311000Y32131000D01*
X75311000Y32131000D02*
X75311000Y37973000D01*
X75311000Y37973000D02*
X73787000Y39497000D01*
X73787000Y39497000D02*
X73025000Y39497000D01*
X73025000Y39497000D02*
X70485000Y42037000D01*
X77145000Y80861000D02*
X76581000Y80861000D01*
X76581000Y80861000D02*
X75311000Y82131000D01*
X75311000Y82131000D02*
X75311000Y87973000D01*
X75311000Y87973000D02*
X73787000Y89497000D01*
X73787000Y89497000D02*
X73025000Y89497000D01*
X73025000Y89497000D02*
X70485000Y92037000D01*
X77145000Y32131000D02*
X78306000Y32131000D01*
X78306000Y32131000D02*
X78687000Y31750000D01*
X77145000Y32131000D02*
X78306000Y32131000D01*
X78306000Y32131000D02*
X78687000Y31750000D01*
X77145000Y32131000D02*
X78306000Y32131000D01*
X78306000Y32131000D02*
X78687000Y31750000D01*
X77145000Y82131000D02*
X78306000Y82131000D01*
X78306000Y82131000D02*
X78687000Y81750000D01*
X77145000Y33401000D02*
X78920000Y33401000D01*
X78920000Y33401000D02*
X79121000Y33602000D01*
X77145000Y33401000D02*
X78920000Y33401000D01*
X78920000Y33401000D02*
X79121000Y33602000D01*
X77145000Y33401000D02*
X78920000Y33401000D01*
X78920000Y33401000D02*
X79121000Y33602000D01*
X77145000Y83401000D02*
X78920000Y83401000D01*
X78920000Y83401000D02*
X79121000Y83602000D01*
X77145000Y34671000D02*
X77145000Y37028000D01*
X71755000Y43307000D02*
X70485000Y44577000D01*
X71755000Y41544820D02*
X71755000Y43307000D01*
X72786820Y40513000D02*
X71755000Y41544820D01*
X73660000Y40513000D02*
X72786820Y40513000D01*
X77145000Y37028000D02*
X73660000Y40513000D01*
X77089000Y34727000D02*
X77145000Y34671000D01*
X77145000Y34671000D02*
X77145000Y37028000D01*
X71755000Y43307000D02*
X70485000Y44577000D01*
X71755000Y41544820D02*
X71755000Y43307000D01*
X72786820Y40513000D02*
X71755000Y41544820D01*
X73660000Y40513000D02*
X72786820Y40513000D01*
X77145000Y37028000D02*
X73660000Y40513000D01*
X77089000Y34727000D02*
X77145000Y34671000D01*
X77145000Y34671000D02*
X77145000Y37028000D01*
X71755000Y43307000D02*
X70485000Y44577000D01*
X71755000Y41544820D02*
X71755000Y43307000D01*
X72786820Y40513000D02*
X71755000Y41544820D01*
X73660000Y40513000D02*
X72786820Y40513000D01*
X77145000Y37028000D02*
X73660000Y40513000D01*
X77089000Y34727000D02*
X77145000Y34671000D01*
X77145000Y84671000D02*
X77145000Y87028000D01*
X71755000Y93307000D02*
X70485000Y94577000D01*
X71755000Y91544820D02*
X71755000Y93307000D01*
X72786820Y90513000D02*
X71755000Y91544820D01*
X73660000Y90513000D02*
X72786820Y90513000D01*
X77145000Y87028000D02*
X73660000Y90513000D01*
X77089000Y84727000D02*
X77145000Y84671000D01*
X59757800Y30083400D02*
X63738400Y30083400D01*
X66048000Y32393000D02*
X66548000Y32393000D01*
X63738400Y30083400D02*
X66048000Y32393000D01*
X66556000Y32385000D02*
X66548000Y32393000D01*
X59757800Y30083400D02*
X63738400Y30083400D01*
X66048000Y32393000D02*
X66548000Y32393000D01*
X63738400Y30083400D02*
X66048000Y32393000D01*
X66556000Y32385000D02*
X66548000Y32393000D01*
X59757800Y30083400D02*
X63738400Y30083400D01*
X66048000Y32393000D02*
X66548000Y32393000D01*
X63738400Y30083400D02*
X66048000Y32393000D01*
X66556000Y32385000D02*
X66548000Y32393000D01*
X59757800Y80083400D02*
X63738400Y80083400D01*
X66048000Y82393000D02*
X66548000Y82393000D01*
X63738400Y80083400D02*
X66048000Y82393000D01*
X66556000Y82385000D02*
X66548000Y82393000D01*
X59757800Y29433400D02*
X65501400Y29433400D01*
X68461000Y32393000D02*
X68961000Y32393000D01*
X65501400Y29433400D02*
X68461000Y32393000D01*
X71445000Y32131000D02*
X69223000Y32131000D01*
X59757800Y29433400D02*
X65501400Y29433400D01*
X68461000Y32393000D02*
X68961000Y32393000D01*
X65501400Y29433400D02*
X68461000Y32393000D01*
X71445000Y32131000D02*
X69223000Y32131000D01*
X59757800Y29433400D02*
X65501400Y29433400D01*
X68461000Y32393000D02*
X68961000Y32393000D01*
X65501400Y29433400D02*
X68461000Y32393000D01*
X71445000Y32131000D02*
X69223000Y32131000D01*
X59757800Y79433400D02*
X65501400Y79433400D01*
X68461000Y82393000D02*
X68961000Y82393000D01*
X65501400Y79433400D02*
X68461000Y82393000D01*
X71445000Y82131000D02*
X69223000Y82131000D01*
X52548600Y32033400D02*
X51583400Y32033400D01*
X53881800Y32033400D02*
X52548600Y32033400D01*
X51583400Y32033400D02*
X51282600Y32334200D01*
X52548600Y32033400D02*
X51583400Y32033400D01*
X53881800Y32033400D02*
X52548600Y32033400D01*
X51583400Y32033400D02*
X51282600Y32334200D01*
X52548600Y32033400D02*
X51583400Y32033400D01*
X53881800Y32033400D02*
X52548600Y32033400D01*
X51583400Y32033400D02*
X51282600Y32334200D01*
X52548600Y82033400D02*
X51583400Y82033400D01*
X53881800Y82033400D02*
X52548600Y82033400D01*
X51583400Y82033400D02*
X51282600Y82334200D01*
X53881800Y30733400D02*
X50902200Y30733400D01*
X41503600Y25120600D02*
X14909800Y25120600D01*
X47269400Y30886400D02*
X41503600Y25120600D01*
X50749200Y30886400D02*
X47269400Y30886400D01*
X50902200Y30733400D02*
X50749200Y30886400D01*
X53881800Y30733400D02*
X50902200Y30733400D01*
X41503600Y25120600D02*
X14909800Y25120600D01*
X47269400Y30886400D02*
X41503600Y25120600D01*
X50749200Y30886400D02*
X47269400Y30886400D01*
X50902200Y30733400D02*
X50749200Y30886400D01*
X53881800Y30733400D02*
X50902200Y30733400D01*
X41503600Y25120600D02*
X14909800Y25120600D01*
X47269400Y30886400D02*
X41503600Y25120600D01*
X50749200Y30886400D02*
X47269400Y30886400D01*
X50902200Y30733400D02*
X50749200Y30886400D01*
X53881800Y80733400D02*
X50902200Y80733400D01*
X41503600Y75120600D02*
X14909800Y75120600D01*
X47269400Y80886400D02*
X41503600Y75120600D01*
X50749200Y80886400D02*
X47269400Y80886400D01*
X50902200Y80733400D02*
X50749200Y80886400D01*
X53881800Y27483400D02*
X51537200Y27483400D01*
X29260800Y15773400D02*
X27637400Y15773400D01*
X43230800Y24130000D02*
X29260800Y24130000D01*
X45669200Y26568400D02*
X43230800Y24130000D01*
X50622200Y26568400D02*
X45669200Y26568400D01*
X51537200Y27483400D02*
X50622200Y26568400D01*
X53881800Y27483400D02*
X51537200Y27483400D01*
X29260800Y15773400D02*
X27637400Y15773400D01*
X43230800Y24130000D02*
X29260800Y24130000D01*
X45669200Y26568400D02*
X43230800Y24130000D01*
X50622200Y26568400D02*
X45669200Y26568400D01*
X51537200Y27483400D02*
X50622200Y26568400D01*
X53881800Y27483400D02*
X51537200Y27483400D01*
X29260800Y15773400D02*
X27637400Y15773400D01*
X43230800Y24130000D02*
X29260800Y24130000D01*
X45669200Y26568400D02*
X43230800Y24130000D01*
X50622200Y26568400D02*
X45669200Y26568400D01*
X51537200Y27483400D02*
X50622200Y26568400D01*
X53881800Y77483400D02*
X51537200Y77483400D01*
X29260800Y65773400D02*
X27637400Y65773400D01*
X43230800Y74130000D02*
X29260800Y74130000D01*
X45669200Y76568400D02*
X43230800Y74130000D01*
X50622200Y76568400D02*
X45669200Y76568400D01*
X51537200Y77483400D02*
X50622200Y76568400D01*
X53881800Y26183400D02*
X52574000Y26183400D01*
X46151800Y19761200D02*
X46151800Y18747400D01*
X52574000Y26183400D02*
X46151800Y19761200D01*
X53881800Y26183400D02*
X52574000Y26183400D01*
X46151800Y19761200D02*
X46151800Y18747400D01*
X52574000Y26183400D02*
X46151800Y19761200D01*
X53881800Y26183400D02*
X52574000Y26183400D01*
X46151800Y19761200D02*
X46151800Y18747400D01*
X52574000Y26183400D02*
X46151800Y19761200D01*
X53881800Y76183400D02*
X52574000Y76183400D01*
X46151800Y69761200D02*
X46151800Y68747400D01*
X52574000Y76183400D02*
X46151800Y69761200D01*
X59757800Y31383400D02*
X60898200Y31383400D01*
X60898200Y31383400D02*
X61518800Y32004000D01*
X61518800Y32004000D02*
X61518800Y34645600D01*
X61518800Y34645600D02*
X55295800Y40868600D01*
X55295800Y40868600D02*
X50571400Y40868600D01*
X50571400Y40868600D02*
X49342000Y42098000D01*
X49342000Y42098000D02*
X49342000Y42672000D01*
X49493600Y42720400D02*
X49542000Y42672000D01*
X59757800Y31383400D02*
X60898200Y31383400D01*
X60898200Y31383400D02*
X61518800Y32004000D01*
X61518800Y32004000D02*
X61518800Y34645600D01*
X61518800Y34645600D02*
X55295800Y40868600D01*
X55295800Y40868600D02*
X50571400Y40868600D01*
X50571400Y40868600D02*
X49342000Y42098000D01*
X49342000Y42098000D02*
X49342000Y42672000D01*
X49493600Y42720400D02*
X49542000Y42672000D01*
X59757800Y31383400D02*
X60898200Y31383400D01*
X60898200Y31383400D02*
X61518800Y32004000D01*
X61518800Y32004000D02*
X61518800Y34645600D01*
X61518800Y34645600D02*
X55295800Y40868600D01*
X55295800Y40868600D02*
X50571400Y40868600D01*
X50571400Y40868600D02*
X49342000Y42098000D01*
X49342000Y42098000D02*
X49342000Y42672000D01*
X49493600Y42720400D02*
X49542000Y42672000D01*
X59757800Y81383400D02*
X60898200Y81383400D01*
X60898200Y81383400D02*
X61518800Y82004000D01*
X61518800Y82004000D02*
X61518800Y84645600D01*
X61518800Y84645600D02*
X55295800Y90868600D01*
X55295800Y90868600D02*
X50571400Y90868600D01*
X50571400Y90868600D02*
X49342000Y92098000D01*
X49342000Y92098000D02*
X49342000Y92672000D01*
X49493600Y92720400D02*
X49542000Y92672000D01*
X48514000Y44130000D02*
X49342000Y44958000D01*
X56642000Y38658800D02*
X55168800Y40132000D01*
X55168800Y40132000D02*
X49784000Y40132000D01*
X49784000Y40132000D02*
X48514000Y41402000D01*
X48514000Y41402000D02*
X48514000Y44130000D01*
X59757800Y32033400D02*
X60735400Y32033400D01*
X60735400Y32033400D02*
X60960000Y32258000D01*
X60960000Y32258000D02*
X60960000Y34340800D01*
X60960000Y34340800D02*
X56642000Y38658800D01*
X56642000Y38658800D02*
X56642000Y38658800D01*
X49542000Y44958000D02*
X49542000Y45215820D01*
X49542000Y45200000D02*
X49542000Y44958000D01*
X49483200Y45016800D02*
X49542000Y44958000D01*
X48514000Y44130000D02*
X49342000Y44958000D01*
X56642000Y38658800D02*
X55168800Y40132000D01*
X55168800Y40132000D02*
X49784000Y40132000D01*
X49784000Y40132000D02*
X48514000Y41402000D01*
X48514000Y41402000D02*
X48514000Y44130000D01*
X59757800Y32033400D02*
X60735400Y32033400D01*
X60735400Y32033400D02*
X60960000Y32258000D01*
X60960000Y32258000D02*
X60960000Y34340800D01*
X60960000Y34340800D02*
X56642000Y38658800D01*
X56642000Y38658800D02*
X56642000Y38658800D01*
X49542000Y44958000D02*
X49542000Y45215820D01*
X49542000Y45200000D02*
X49542000Y44958000D01*
X49483200Y45016800D02*
X49542000Y44958000D01*
X48514000Y44130000D02*
X49342000Y44958000D01*
X56642000Y38658800D02*
X55168800Y40132000D01*
X55168800Y40132000D02*
X49784000Y40132000D01*
X49784000Y40132000D02*
X48514000Y41402000D01*
X48514000Y41402000D02*
X48514000Y44130000D01*
X59757800Y32033400D02*
X60735400Y32033400D01*
X60735400Y32033400D02*
X60960000Y32258000D01*
X60960000Y32258000D02*
X60960000Y34340800D01*
X60960000Y34340800D02*
X56642000Y38658800D01*
X56642000Y38658800D02*
X56642000Y38658800D01*
X49542000Y44958000D02*
X49542000Y45215820D01*
X49542000Y45200000D02*
X49542000Y44958000D01*
X49483200Y45016800D02*
X49542000Y44958000D01*
X48514000Y94130000D02*
X49342000Y94958000D01*
X56642000Y88658800D02*
X55168800Y90132000D01*
X55168800Y90132000D02*
X49784000Y90132000D01*
X49784000Y90132000D02*
X48514000Y91402000D01*
X48514000Y91402000D02*
X48514000Y94130000D01*
X59757800Y82033400D02*
X60735400Y82033400D01*
X60735400Y82033400D02*
X60960000Y82258000D01*
X60960000Y82258000D02*
X60960000Y84340800D01*
X60960000Y84340800D02*
X56642000Y88658800D01*
X56642000Y88658800D02*
X56642000Y88658800D01*
X49542000Y94958000D02*
X49542000Y95215820D01*
X49542000Y95200000D02*
X49542000Y94958000D01*
X49483200Y95016800D02*
X49542000Y94958000D01*
X57061800Y34950400D02*
X57061800Y33692400D01*
X58070800Y32683400D02*
X59757800Y32683400D01*
X57061800Y33692400D02*
X58070800Y32683400D01*
X57061800Y34950400D02*
X57061800Y33692400D01*
X58070800Y32683400D02*
X59757800Y32683400D01*
X57061800Y33692400D02*
X58070800Y32683400D01*
X57061800Y34950400D02*
X57061800Y33692400D01*
X58070800Y32683400D02*
X59757800Y32683400D01*
X57061800Y33692400D02*
X58070800Y32683400D01*
X57061800Y84950400D02*
X57061800Y83692400D01*
X58070800Y82683400D02*
X59757800Y82683400D01*
X57061800Y83692400D02*
X58070800Y82683400D01*
X59757800Y33333400D02*
X59757800Y34095200D01*
X59757800Y34095200D02*
X57785000Y36068000D01*
X57785000Y36068000D02*
X55438000Y36068000D01*
X55438000Y36068000D02*
X52898000Y38608000D01*
X52898000Y38608000D02*
X52258000Y38608000D01*
X59757800Y33333400D02*
X59757800Y34095200D01*
X59757800Y34095200D02*
X57785000Y36068000D01*
X57785000Y36068000D02*
X55438000Y36068000D01*
X55438000Y36068000D02*
X52898000Y38608000D01*
X52898000Y38608000D02*
X52258000Y38608000D01*
X59757800Y33333400D02*
X59757800Y34095200D01*
X59757800Y34095200D02*
X57785000Y36068000D01*
X57785000Y36068000D02*
X55438000Y36068000D01*
X55438000Y36068000D02*
X52898000Y38608000D01*
X52898000Y38608000D02*
X52258000Y38608000D01*
X59757800Y83333400D02*
X59757800Y84095200D01*
X59757800Y84095200D02*
X57785000Y86068000D01*
X57785000Y86068000D02*
X55438000Y86068000D01*
X55438000Y86068000D02*
X52898000Y88608000D01*
X52898000Y88608000D02*
X52258000Y88608000D01*
X77142000Y28448000D02*
X77142000Y26162000D01*
X81587000Y31750000D02*
X81587000Y31168000D01*
X81587000Y31168000D02*
X78867000Y28448000D01*
X78867000Y28448000D02*
X77142000Y28448000D01*
X81587000Y31750000D02*
X81587000Y34872000D01*
X81587000Y34872000D02*
X79957000Y36502000D01*
X79957000Y36502000D02*
X79121000Y36502000D01*
X79121000Y36502000D02*
X78560000Y36502000D01*
X78560000Y36502000D02*
X73025000Y42037000D01*
X77142000Y28448000D02*
X77142000Y26162000D01*
X81587000Y31750000D02*
X81587000Y31168000D01*
X81587000Y31168000D02*
X78867000Y28448000D01*
X78867000Y28448000D02*
X77142000Y28448000D01*
X81587000Y31750000D02*
X81587000Y34872000D01*
X81587000Y34872000D02*
X79957000Y36502000D01*
X79957000Y36502000D02*
X79121000Y36502000D01*
X79121000Y36502000D02*
X78560000Y36502000D01*
X78560000Y36502000D02*
X73025000Y42037000D01*
X77142000Y28448000D02*
X77142000Y26162000D01*
X81587000Y31750000D02*
X81587000Y31168000D01*
X81587000Y31168000D02*
X78867000Y28448000D01*
X78867000Y28448000D02*
X77142000Y28448000D01*
X81587000Y31750000D02*
X81587000Y34872000D01*
X81587000Y34872000D02*
X79957000Y36502000D01*
X79957000Y36502000D02*
X79121000Y36502000D01*
X79121000Y36502000D02*
X78560000Y36502000D01*
X78560000Y36502000D02*
X73025000Y42037000D01*
X77142000Y78448000D02*
X77142000Y76162000D01*
X81587000Y81750000D02*
X81587000Y81168000D01*
X81587000Y81168000D02*
X78867000Y78448000D01*
X78867000Y78448000D02*
X77142000Y78448000D01*
X81587000Y81750000D02*
X81587000Y84872000D01*
X81587000Y84872000D02*
X79957000Y86502000D01*
X79957000Y86502000D02*
X79121000Y86502000D01*
X79121000Y86502000D02*
X78560000Y86502000D01*
X78560000Y86502000D02*
X73025000Y92037000D01*
D39*
X21259800Y15773400D02*
X24737400Y15773400D01*
X21259800Y15773400D02*
X24737400Y15773400D01*
X21259800Y15773400D02*
X24737400Y15773400D01*
X21259800Y65773400D02*
X24737400Y65773400D01*
X41579800Y15773400D02*
X46077800Y15773400D01*
X46077800Y15773400D02*
X46151800Y15847400D01*
D38*
X46568400Y16027400D02*
X46583600Y16042600D01*
D41*
X41567400Y15837200D02*
X41554400Y15824200D01*
D39*
X41579800Y15773400D02*
X46077800Y15773400D01*
X46077800Y15773400D02*
X46151800Y15847400D01*
D38*
X46568400Y16027400D02*
X46583600Y16042600D01*
D41*
X41567400Y15837200D02*
X41554400Y15824200D01*
D39*
X41579800Y15773400D02*
X46077800Y15773400D01*
X46077800Y15773400D02*
X46151800Y15847400D01*
D38*
X46568400Y16027400D02*
X46583600Y16042600D01*
D41*
X41567400Y15837200D02*
X41554400Y15824200D01*
D39*
X41579800Y65773400D02*
X46077800Y65773400D01*
X46077800Y65773400D02*
X46151800Y65847400D01*
D38*
X46568400Y66027400D02*
X46583600Y66042600D01*
D41*
X41567400Y65837200D02*
X41554400Y65824200D01*
D38*
X54948000Y42672000D02*
X55600600Y42672000D01*
X55600600Y42672000D02*
X59664600Y38608000D01*
X54948000Y44958000D02*
X54948000Y42672000D01*
X63497460Y27805380D02*
X63500000Y27802840D01*
X63500000Y27802840D02*
X63500000Y27797000D01*
X54798000Y38608000D02*
X55118000Y38608000D01*
X63500000Y27797000D02*
X63770000Y27797000D01*
X63770000Y27797000D02*
X66421000Y25146000D01*
X66421000Y25146000D02*
X67000000Y25146000D01*
X71445000Y30861000D02*
X70231000Y30861000D01*
X67945000Y25146000D02*
X67000000Y25146000D01*
X68834000Y26035000D02*
X67945000Y25146000D01*
X68834000Y29464000D02*
X68834000Y26035000D01*
X70231000Y30861000D02*
X68834000Y29464000D01*
X59757800Y28133400D02*
X63163600Y28133400D01*
X63163600Y28133400D02*
X63500000Y27797000D01*
X71445000Y30861000D02*
X71450200Y30861000D01*
X63500000Y27547000D02*
X63559000Y27547000D01*
X63370800Y27676200D02*
X63500000Y27547000D01*
X54948000Y42672000D02*
X55600600Y42672000D01*
X55600600Y42672000D02*
X59664600Y38608000D01*
X54948000Y44958000D02*
X54948000Y42672000D01*
X63497460Y27805380D02*
X63500000Y27802840D01*
X63500000Y27802840D02*
X63500000Y27797000D01*
X54798000Y38608000D02*
X55118000Y38608000D01*
X63500000Y27797000D02*
X63770000Y27797000D01*
X63770000Y27797000D02*
X66421000Y25146000D01*
X66421000Y25146000D02*
X67000000Y25146000D01*
X71445000Y30861000D02*
X70231000Y30861000D01*
X67945000Y25146000D02*
X67000000Y25146000D01*
X68834000Y26035000D02*
X67945000Y25146000D01*
X68834000Y29464000D02*
X68834000Y26035000D01*
X70231000Y30861000D02*
X68834000Y29464000D01*
X59757800Y28133400D02*
X63163600Y28133400D01*
X63163600Y28133400D02*
X63500000Y27797000D01*
X71445000Y30861000D02*
X71450200Y30861000D01*
X63500000Y27547000D02*
X63559000Y27547000D01*
X63370800Y27676200D02*
X63500000Y27547000D01*
X54948000Y42672000D02*
X55600600Y42672000D01*
X55600600Y42672000D02*
X59664600Y38608000D01*
X54948000Y44958000D02*
X54948000Y42672000D01*
X63497460Y27805380D02*
X63500000Y27802840D01*
X63500000Y27802840D02*
X63500000Y27797000D01*
X54798000Y38608000D02*
X55118000Y38608000D01*
X63500000Y27797000D02*
X63770000Y27797000D01*
X63770000Y27797000D02*
X66421000Y25146000D01*
X66421000Y25146000D02*
X67000000Y25146000D01*
X71445000Y30861000D02*
X70231000Y30861000D01*
X67945000Y25146000D02*
X67000000Y25146000D01*
X68834000Y26035000D02*
X67945000Y25146000D01*
X68834000Y29464000D02*
X68834000Y26035000D01*
X70231000Y30861000D02*
X68834000Y29464000D01*
X59757800Y28133400D02*
X63163600Y28133400D01*
X63163600Y28133400D02*
X63500000Y27797000D01*
X71445000Y30861000D02*
X71450200Y30861000D01*
X63500000Y27547000D02*
X63559000Y27547000D01*
X63370800Y27676200D02*
X63500000Y27547000D01*
X54948000Y92672000D02*
X55600600Y92672000D01*
X55600600Y92672000D02*
X59664600Y88608000D01*
X54948000Y94958000D02*
X54948000Y92672000D01*
X63497460Y77805380D02*
X63500000Y77802840D01*
X63500000Y77802840D02*
X63500000Y77797000D01*
X54798000Y88608000D02*
X55118000Y88608000D01*
X63500000Y77797000D02*
X63770000Y77797000D01*
X63770000Y77797000D02*
X66421000Y75146000D01*
X66421000Y75146000D02*
X67000000Y75146000D01*
X71445000Y80861000D02*
X70231000Y80861000D01*
X67945000Y75146000D02*
X67000000Y75146000D01*
X68834000Y76035000D02*
X67945000Y75146000D01*
X68834000Y79464000D02*
X68834000Y76035000D01*
X70231000Y80861000D02*
X68834000Y79464000D01*
X59757800Y78133400D02*
X63163600Y78133400D01*
X63163600Y78133400D02*
X63500000Y77797000D01*
X71445000Y80861000D02*
X71450200Y80861000D01*
X63500000Y77547000D02*
X63559000Y77547000D01*
X63370800Y77676200D02*
X63500000Y77547000D01*
X68961000Y33393000D02*
X66548000Y33393000D01*
X71445000Y33401000D02*
X68969000Y33401000D01*
X68969000Y33401000D02*
X68961000Y33393000D01*
X71437000Y33393000D02*
X71445000Y33401000D01*
X68961000Y33393000D02*
X66548000Y33393000D01*
X71445000Y33401000D02*
X68969000Y33401000D01*
X68969000Y33401000D02*
X68961000Y33393000D01*
X71437000Y33393000D02*
X71445000Y33401000D01*
X68961000Y33393000D02*
X66548000Y33393000D01*
X71445000Y33401000D02*
X68969000Y33401000D01*
X68969000Y33401000D02*
X68961000Y33393000D01*
X71437000Y33393000D02*
X71445000Y33401000D01*
X68961000Y83393000D02*
X66548000Y83393000D01*
X71445000Y83401000D02*
X68969000Y83401000D01*
X68969000Y83401000D02*
X68961000Y83393000D01*
X71437000Y83393000D02*
X71445000Y83401000D01*
X69367000Y37084000D02*
X69367000Y37948000D01*
X66675000Y43307000D02*
X65405000Y44577000D01*
X66675000Y40640000D02*
X66675000Y43307000D01*
X69367000Y37948000D02*
X66675000Y40640000D01*
X69367000Y37084000D02*
X69367000Y37948000D01*
X66675000Y43307000D02*
X65405000Y44577000D01*
X66675000Y40640000D02*
X66675000Y43307000D01*
X69367000Y37948000D02*
X66675000Y40640000D01*
X69367000Y37084000D02*
X69367000Y37948000D01*
X66675000Y43307000D02*
X65405000Y44577000D01*
X66675000Y40640000D02*
X66675000Y43307000D01*
X69367000Y37948000D02*
X66675000Y40640000D01*
X69367000Y87084000D02*
X69367000Y87948000D01*
X66675000Y93307000D02*
X65405000Y94577000D01*
X66675000Y90640000D02*
X66675000Y93307000D01*
X69367000Y87948000D02*
X66675000Y90640000D01*
X53881800Y25533400D02*
X52990800Y25533400D01*
X52679600Y25222200D02*
X52679600Y22631400D01*
X52990800Y25533400D02*
X52679600Y25222200D01*
X52679600Y22631400D02*
X52959000Y22352000D01*
D39*
X52628800Y19329400D02*
X52628800Y22021800D01*
X52628800Y22021800D02*
X52959000Y22352000D01*
D38*
X53881800Y25533400D02*
X52990800Y25533400D01*
X52679600Y25222200D02*
X52679600Y22631400D01*
X52990800Y25533400D02*
X52679600Y25222200D01*
X52679600Y22631400D02*
X52959000Y22352000D01*
D39*
X52628800Y19329400D02*
X52628800Y22021800D01*
X52628800Y22021800D02*
X52959000Y22352000D01*
D38*
X53881800Y25533400D02*
X52990800Y25533400D01*
X52679600Y25222200D02*
X52679600Y22631400D01*
X52990800Y25533400D02*
X52679600Y25222200D01*
X52679600Y22631400D02*
X52959000Y22352000D01*
D39*
X52628800Y19329400D02*
X52628800Y22021800D01*
X52628800Y22021800D02*
X52959000Y22352000D01*
D38*
X53881800Y75533400D02*
X52990800Y75533400D01*
X52679600Y75222200D02*
X52679600Y72631400D01*
X52990800Y75533400D02*
X52679600Y75222200D01*
X52679600Y72631400D02*
X52959000Y72352000D01*
D39*
X52628800Y69329400D02*
X52628800Y72021800D01*
X52628800Y72021800D02*
X52959000Y72352000D01*
D38*
X57859800Y22504400D02*
X57859800Y19481800D01*
X59757800Y25533400D02*
X58578800Y25533400D01*
X57859800Y24814400D02*
X57859800Y22504400D01*
X58578800Y25533400D02*
X57859800Y24814400D01*
X57859800Y22504400D02*
X57859800Y19481800D01*
X59757800Y25533400D02*
X58578800Y25533400D01*
X57859800Y24814400D02*
X57859800Y22504400D01*
X58578800Y25533400D02*
X57859800Y24814400D01*
X57859800Y22504400D02*
X57859800Y19481800D01*
X59757800Y25533400D02*
X58578800Y25533400D01*
X57859800Y24814400D02*
X57859800Y22504400D01*
X58578800Y25533400D02*
X57859800Y24814400D01*
X57859800Y72504400D02*
X57859800Y69481800D01*
X59757800Y75533400D02*
X58578800Y75533400D01*
X57859800Y74814400D02*
X57859800Y72504400D01*
X58578800Y75533400D02*
X57859800Y74814400D01*
X60859800Y19481800D02*
X60859800Y22504400D01*
X60859800Y23654400D02*
X59757800Y24883400D01*
X60859800Y19481800D02*
X60859800Y22504400D01*
X60859800Y23654400D02*
X59757800Y24883400D01*
X60859800Y19481800D02*
X60859800Y22504400D01*
X60859800Y23654400D02*
X59757800Y24883400D01*
X60859800Y69481800D02*
X60859800Y72504400D01*
X60859800Y73654400D02*
X59757800Y74883400D01*
X69367000Y35814000D02*
X70305000Y35814000D01*
X70305000Y35814000D02*
X71321000Y36830000D01*
X69341600Y35814000D02*
X69342000Y35813600D01*
X69367000Y35814000D02*
X70305000Y35814000D01*
X70305000Y35814000D02*
X71321000Y36830000D01*
X69341600Y35814000D02*
X69342000Y35813600D01*
X69367000Y35814000D02*
X70305000Y35814000D01*
X70305000Y35814000D02*
X71321000Y36830000D01*
X69341600Y35814000D02*
X69342000Y35813600D01*
X69367000Y85814000D02*
X70305000Y85814000D01*
X70305000Y85814000D02*
X71321000Y86830000D01*
X69341600Y85814000D02*
X69342000Y85813600D01*
X51242000Y44958000D02*
X52748000Y44958000D01*
X51242000Y44958000D02*
X52748000Y44958000D01*
X51242000Y44958000D02*
X52748000Y44958000D01*
X51242000Y94958000D02*
X52748000Y94958000D01*
X51242000Y42672000D02*
X52748000Y42672000D01*
X51242000Y42672000D02*
X52748000Y42672000D01*
X51242000Y42672000D02*
X52748000Y42672000D01*
X51242000Y92672000D02*
X52748000Y92672000D01*
D43*
G36*
X14274800Y31775400D02*
X14283485Y31729241D01*
X14310765Y31686847D01*
X14352390Y31658406D01*
X14401800Y31648400D01*
X20243800Y31648400D01*
X20289959Y31657085D01*
X20332353Y31684365D01*
X20360794Y31725990D01*
X20370800Y31775400D01*
X20370800Y34442400D01*
X34594800Y34442400D01*
X34594800Y31775400D01*
X34603485Y31729241D01*
X34630765Y31686847D01*
X34672390Y31658406D01*
X34721800Y31648400D01*
X38023800Y31648400D01*
X38069959Y31657085D01*
X38112353Y31684365D01*
X38140794Y31725990D01*
X38150800Y31775400D01*
X38150800Y34442400D01*
X39297291Y34442400D01*
X39642930Y34373648D01*
X39925345Y34184945D01*
X40114048Y33902530D01*
X40182800Y33556891D01*
X40182800Y26691909D01*
X40114048Y26346270D01*
X39925345Y26063855D01*
X39642930Y25875152D01*
X39297291Y25806400D01*
X3206309Y25806400D01*
X2860670Y25875152D01*
X2578255Y26063855D01*
X2389552Y26346270D01*
X2320800Y26691909D01*
X2320800Y33556891D01*
X2389552Y33902530D01*
X2578255Y34184945D01*
X2860670Y34373648D01*
X3206309Y34442400D01*
X14274800Y34442400D01*
X14274800Y31775400D01*
X14274800Y31775400D01*
G37*
X14274800Y31775400D02*
X14283485Y31729241D01*
X14310765Y31686847D01*
X14352390Y31658406D01*
X14401800Y31648400D01*
X20243800Y31648400D01*
X20289959Y31657085D01*
X20332353Y31684365D01*
X20360794Y31725990D01*
X20370800Y31775400D01*
X20370800Y34442400D01*
X34594800Y34442400D01*
X34594800Y31775400D01*
X34603485Y31729241D01*
X34630765Y31686847D01*
X34672390Y31658406D01*
X34721800Y31648400D01*
X38023800Y31648400D01*
X38069959Y31657085D01*
X38112353Y31684365D01*
X38140794Y31725990D01*
X38150800Y31775400D01*
X38150800Y34442400D01*
X39297291Y34442400D01*
X39642930Y34373648D01*
X39925345Y34184945D01*
X40114048Y33902530D01*
X40182800Y33556891D01*
X40182800Y26691909D01*
X40114048Y26346270D01*
X39925345Y26063855D01*
X39642930Y25875152D01*
X39297291Y25806400D01*
X3206309Y25806400D01*
X2860670Y25875152D01*
X2578255Y26063855D01*
X2389552Y26346270D01*
X2320800Y26691909D01*
X2320800Y33556891D01*
X2389552Y33902530D01*
X2578255Y34184945D01*
X2860670Y34373648D01*
X3206309Y34442400D01*
X14274800Y34442400D01*
X14274800Y31775400D01*
G36*
X29124746Y23449118D02*
X29395665Y23448882D01*
X29568753Y23520400D01*
X39297291Y23520400D01*
X39642930Y23451648D01*
X39925345Y23262945D01*
X40114048Y22980530D01*
X40182800Y22634891D01*
X40182800Y15769909D01*
X40114048Y15424270D01*
X39925345Y15141855D01*
X39642930Y14953152D01*
X39297291Y14884400D01*
X38150800Y14884400D01*
X38150800Y17551400D01*
X38142115Y17597559D01*
X38114835Y17639953D01*
X38073210Y17668394D01*
X38023800Y17678400D01*
X17195800Y17678400D01*
X17149641Y17669715D01*
X17107247Y17642435D01*
X17078806Y17600810D01*
X17068800Y17551400D01*
X17068800Y14884400D01*
X3206309Y14884400D01*
X2860670Y14953152D01*
X2578255Y15141855D01*
X2389552Y15424270D01*
X2320800Y15769909D01*
X2320800Y22634891D01*
X2389552Y22980530D01*
X2578255Y23262945D01*
X2860670Y23451648D01*
X3206309Y23520400D01*
X28953081Y23520400D01*
X29124746Y23449118D01*
X29124746Y23449118D01*
G37*
X29124746Y23449118D02*
X29395665Y23448882D01*
X29568753Y23520400D01*
X39297291Y23520400D01*
X39642930Y23451648D01*
X39925345Y23262945D01*
X40114048Y22980530D01*
X40182800Y22634891D01*
X40182800Y15769909D01*
X40114048Y15424270D01*
X39925345Y15141855D01*
X39642930Y14953152D01*
X39297291Y14884400D01*
X38150800Y14884400D01*
X38150800Y17551400D01*
X38142115Y17597559D01*
X38114835Y17639953D01*
X38073210Y17668394D01*
X38023800Y17678400D01*
X17195800Y17678400D01*
X17149641Y17669715D01*
X17107247Y17642435D01*
X17078806Y17600810D01*
X17068800Y17551400D01*
X17068800Y14884400D01*
X3206309Y14884400D01*
X2860670Y14953152D01*
X2578255Y15141855D01*
X2389552Y15424270D01*
X2320800Y15769909D01*
X2320800Y22634891D01*
X2389552Y22980530D01*
X2578255Y23262945D01*
X2860670Y23451648D01*
X3206309Y23520400D01*
X28953081Y23520400D01*
X29124746Y23449118D01*
G36*
X14274800Y31775400D02*
X14283485Y31729241D01*
X14310765Y31686847D01*
X14352390Y31658406D01*
X14401800Y31648400D01*
X20243800Y31648400D01*
X20289959Y31657085D01*
X20332353Y31684365D01*
X20360794Y31725990D01*
X20370800Y31775400D01*
X20370800Y34442400D01*
X34594800Y34442400D01*
X34594800Y31775400D01*
X34603485Y31729241D01*
X34630765Y31686847D01*
X34672390Y31658406D01*
X34721800Y31648400D01*
X38023800Y31648400D01*
X38069959Y31657085D01*
X38112353Y31684365D01*
X38140794Y31725990D01*
X38150800Y31775400D01*
X38150800Y34442400D01*
X39297291Y34442400D01*
X39642930Y34373648D01*
X39925345Y34184945D01*
X40114048Y33902530D01*
X40182800Y33556891D01*
X40182800Y26691909D01*
X40114048Y26346270D01*
X39925345Y26063855D01*
X39642930Y25875152D01*
X39297291Y25806400D01*
X3206309Y25806400D01*
X2860670Y25875152D01*
X2578255Y26063855D01*
X2389552Y26346270D01*
X2320800Y26691909D01*
X2320800Y33556891D01*
X2389552Y33902530D01*
X2578255Y34184945D01*
X2860670Y34373648D01*
X3206309Y34442400D01*
X14274800Y34442400D01*
X14274800Y31775400D01*
X14274800Y31775400D01*
G37*
X14274800Y31775400D02*
X14283485Y31729241D01*
X14310765Y31686847D01*
X14352390Y31658406D01*
X14401800Y31648400D01*
X20243800Y31648400D01*
X20289959Y31657085D01*
X20332353Y31684365D01*
X20360794Y31725990D01*
X20370800Y31775400D01*
X20370800Y34442400D01*
X34594800Y34442400D01*
X34594800Y31775400D01*
X34603485Y31729241D01*
X34630765Y31686847D01*
X34672390Y31658406D01*
X34721800Y31648400D01*
X38023800Y31648400D01*
X38069959Y31657085D01*
X38112353Y31684365D01*
X38140794Y31725990D01*
X38150800Y31775400D01*
X38150800Y34442400D01*
X39297291Y34442400D01*
X39642930Y34373648D01*
X39925345Y34184945D01*
X40114048Y33902530D01*
X40182800Y33556891D01*
X40182800Y26691909D01*
X40114048Y26346270D01*
X39925345Y26063855D01*
X39642930Y25875152D01*
X39297291Y25806400D01*
X3206309Y25806400D01*
X2860670Y25875152D01*
X2578255Y26063855D01*
X2389552Y26346270D01*
X2320800Y26691909D01*
X2320800Y33556891D01*
X2389552Y33902530D01*
X2578255Y34184945D01*
X2860670Y34373648D01*
X3206309Y34442400D01*
X14274800Y34442400D01*
X14274800Y31775400D01*
G36*
X29124746Y23449118D02*
X29395665Y23448882D01*
X29568753Y23520400D01*
X39297291Y23520400D01*
X39642930Y23451648D01*
X39925345Y23262945D01*
X40114048Y22980530D01*
X40182800Y22634891D01*
X40182800Y15769909D01*
X40114048Y15424270D01*
X39925345Y15141855D01*
X39642930Y14953152D01*
X39297291Y14884400D01*
X38150800Y14884400D01*
X38150800Y17551400D01*
X38142115Y17597559D01*
X38114835Y17639953D01*
X38073210Y17668394D01*
X38023800Y17678400D01*
X17195800Y17678400D01*
X17149641Y17669715D01*
X17107247Y17642435D01*
X17078806Y17600810D01*
X17068800Y17551400D01*
X17068800Y14884400D01*
X3206309Y14884400D01*
X2860670Y14953152D01*
X2578255Y15141855D01*
X2389552Y15424270D01*
X2320800Y15769909D01*
X2320800Y22634891D01*
X2389552Y22980530D01*
X2578255Y23262945D01*
X2860670Y23451648D01*
X3206309Y23520400D01*
X28953081Y23520400D01*
X29124746Y23449118D01*
X29124746Y23449118D01*
G37*
X29124746Y23449118D02*
X29395665Y23448882D01*
X29568753Y23520400D01*
X39297291Y23520400D01*
X39642930Y23451648D01*
X39925345Y23262945D01*
X40114048Y22980530D01*
X40182800Y22634891D01*
X40182800Y15769909D01*
X40114048Y15424270D01*
X39925345Y15141855D01*
X39642930Y14953152D01*
X39297291Y14884400D01*
X38150800Y14884400D01*
X38150800Y17551400D01*
X38142115Y17597559D01*
X38114835Y17639953D01*
X38073210Y17668394D01*
X38023800Y17678400D01*
X17195800Y17678400D01*
X17149641Y17669715D01*
X17107247Y17642435D01*
X17078806Y17600810D01*
X17068800Y17551400D01*
X17068800Y14884400D01*
X3206309Y14884400D01*
X2860670Y14953152D01*
X2578255Y15141855D01*
X2389552Y15424270D01*
X2320800Y15769909D01*
X2320800Y22634891D01*
X2389552Y22980530D01*
X2578255Y23262945D01*
X2860670Y23451648D01*
X3206309Y23520400D01*
X28953081Y23520400D01*
X29124746Y23449118D01*
G36*
X14274800Y31775400D02*
X14283485Y31729241D01*
X14310765Y31686847D01*
X14352390Y31658406D01*
X14401800Y31648400D01*
X20243800Y31648400D01*
X20289959Y31657085D01*
X20332353Y31684365D01*
X20360794Y31725990D01*
X20370800Y31775400D01*
X20370800Y34442400D01*
X34594800Y34442400D01*
X34594800Y31775400D01*
X34603485Y31729241D01*
X34630765Y31686847D01*
X34672390Y31658406D01*
X34721800Y31648400D01*
X38023800Y31648400D01*
X38069959Y31657085D01*
X38112353Y31684365D01*
X38140794Y31725990D01*
X38150800Y31775400D01*
X38150800Y34442400D01*
X39297291Y34442400D01*
X39642930Y34373648D01*
X39925345Y34184945D01*
X40114048Y33902530D01*
X40182800Y33556891D01*
X40182800Y26691909D01*
X40114048Y26346270D01*
X39925345Y26063855D01*
X39642930Y25875152D01*
X39297291Y25806400D01*
X3206309Y25806400D01*
X2860670Y25875152D01*
X2578255Y26063855D01*
X2389552Y26346270D01*
X2320800Y26691909D01*
X2320800Y33556891D01*
X2389552Y33902530D01*
X2578255Y34184945D01*
X2860670Y34373648D01*
X3206309Y34442400D01*
X14274800Y34442400D01*
X14274800Y31775400D01*
X14274800Y31775400D01*
G37*
X14274800Y31775400D02*
X14283485Y31729241D01*
X14310765Y31686847D01*
X14352390Y31658406D01*
X14401800Y31648400D01*
X20243800Y31648400D01*
X20289959Y31657085D01*
X20332353Y31684365D01*
X20360794Y31725990D01*
X20370800Y31775400D01*
X20370800Y34442400D01*
X34594800Y34442400D01*
X34594800Y31775400D01*
X34603485Y31729241D01*
X34630765Y31686847D01*
X34672390Y31658406D01*
X34721800Y31648400D01*
X38023800Y31648400D01*
X38069959Y31657085D01*
X38112353Y31684365D01*
X38140794Y31725990D01*
X38150800Y31775400D01*
X38150800Y34442400D01*
X39297291Y34442400D01*
X39642930Y34373648D01*
X39925345Y34184945D01*
X40114048Y33902530D01*
X40182800Y33556891D01*
X40182800Y26691909D01*
X40114048Y26346270D01*
X39925345Y26063855D01*
X39642930Y25875152D01*
X39297291Y25806400D01*
X3206309Y25806400D01*
X2860670Y25875152D01*
X2578255Y26063855D01*
X2389552Y26346270D01*
X2320800Y26691909D01*
X2320800Y33556891D01*
X2389552Y33902530D01*
X2578255Y34184945D01*
X2860670Y34373648D01*
X3206309Y34442400D01*
X14274800Y34442400D01*
X14274800Y31775400D01*
G36*
X29124746Y23449118D02*
X29395665Y23448882D01*
X29568753Y23520400D01*
X39297291Y23520400D01*
X39642930Y23451648D01*
X39925345Y23262945D01*
X40114048Y22980530D01*
X40182800Y22634891D01*
X40182800Y15769909D01*
X40114048Y15424270D01*
X39925345Y15141855D01*
X39642930Y14953152D01*
X39297291Y14884400D01*
X38150800Y14884400D01*
X38150800Y17551400D01*
X38142115Y17597559D01*
X38114835Y17639953D01*
X38073210Y17668394D01*
X38023800Y17678400D01*
X17195800Y17678400D01*
X17149641Y17669715D01*
X17107247Y17642435D01*
X17078806Y17600810D01*
X17068800Y17551400D01*
X17068800Y14884400D01*
X3206309Y14884400D01*
X2860670Y14953152D01*
X2578255Y15141855D01*
X2389552Y15424270D01*
X2320800Y15769909D01*
X2320800Y22634891D01*
X2389552Y22980530D01*
X2578255Y23262945D01*
X2860670Y23451648D01*
X3206309Y23520400D01*
X28953081Y23520400D01*
X29124746Y23449118D01*
X29124746Y23449118D01*
G37*
X29124746Y23449118D02*
X29395665Y23448882D01*
X29568753Y23520400D01*
X39297291Y23520400D01*
X39642930Y23451648D01*
X39925345Y23262945D01*
X40114048Y22980530D01*
X40182800Y22634891D01*
X40182800Y15769909D01*
X40114048Y15424270D01*
X39925345Y15141855D01*
X39642930Y14953152D01*
X39297291Y14884400D01*
X38150800Y14884400D01*
X38150800Y17551400D01*
X38142115Y17597559D01*
X38114835Y17639953D01*
X38073210Y17668394D01*
X38023800Y17678400D01*
X17195800Y17678400D01*
X17149641Y17669715D01*
X17107247Y17642435D01*
X17078806Y17600810D01*
X17068800Y17551400D01*
X17068800Y14884400D01*
X3206309Y14884400D01*
X2860670Y14953152D01*
X2578255Y15141855D01*
X2389552Y15424270D01*
X2320800Y15769909D01*
X2320800Y22634891D01*
X2389552Y22980530D01*
X2578255Y23262945D01*
X2860670Y23451648D01*
X3206309Y23520400D01*
X28953081Y23520400D01*
X29124746Y23449118D01*
G36*
X14274800Y81775400D02*
X14283485Y81729241D01*
X14310765Y81686847D01*
X14352390Y81658406D01*
X14401800Y81648400D01*
X20243800Y81648400D01*
X20289959Y81657085D01*
X20332353Y81684365D01*
X20360794Y81725990D01*
X20370800Y81775400D01*
X20370800Y84442400D01*
X34594800Y84442400D01*
X34594800Y81775400D01*
X34603485Y81729241D01*
X34630765Y81686847D01*
X34672390Y81658406D01*
X34721800Y81648400D01*
X38023800Y81648400D01*
X38069959Y81657085D01*
X38112353Y81684365D01*
X38140794Y81725990D01*
X38150800Y81775400D01*
X38150800Y84442400D01*
X39297291Y84442400D01*
X39642930Y84373648D01*
X39925345Y84184945D01*
X40114048Y83902530D01*
X40182800Y83556891D01*
X40182800Y76691909D01*
X40114048Y76346270D01*
X39925345Y76063855D01*
X39642930Y75875152D01*
X39297291Y75806400D01*
X3206309Y75806400D01*
X2860670Y75875152D01*
X2578255Y76063855D01*
X2389552Y76346270D01*
X2320800Y76691909D01*
X2320800Y83556891D01*
X2389552Y83902530D01*
X2578255Y84184945D01*
X2860670Y84373648D01*
X3206309Y84442400D01*
X14274800Y84442400D01*
X14274800Y81775400D01*
X14274800Y81775400D01*
G37*
X14274800Y81775400D02*
X14283485Y81729241D01*
X14310765Y81686847D01*
X14352390Y81658406D01*
X14401800Y81648400D01*
X20243800Y81648400D01*
X20289959Y81657085D01*
X20332353Y81684365D01*
X20360794Y81725990D01*
X20370800Y81775400D01*
X20370800Y84442400D01*
X34594800Y84442400D01*
X34594800Y81775400D01*
X34603485Y81729241D01*
X34630765Y81686847D01*
X34672390Y81658406D01*
X34721800Y81648400D01*
X38023800Y81648400D01*
X38069959Y81657085D01*
X38112353Y81684365D01*
X38140794Y81725990D01*
X38150800Y81775400D01*
X38150800Y84442400D01*
X39297291Y84442400D01*
X39642930Y84373648D01*
X39925345Y84184945D01*
X40114048Y83902530D01*
X40182800Y83556891D01*
X40182800Y76691909D01*
X40114048Y76346270D01*
X39925345Y76063855D01*
X39642930Y75875152D01*
X39297291Y75806400D01*
X3206309Y75806400D01*
X2860670Y75875152D01*
X2578255Y76063855D01*
X2389552Y76346270D01*
X2320800Y76691909D01*
X2320800Y83556891D01*
X2389552Y83902530D01*
X2578255Y84184945D01*
X2860670Y84373648D01*
X3206309Y84442400D01*
X14274800Y84442400D01*
X14274800Y81775400D01*
G36*
X29124746Y73449118D02*
X29395665Y73448882D01*
X29568753Y73520400D01*
X39297291Y73520400D01*
X39642930Y73451648D01*
X39925345Y73262945D01*
X40114048Y72980530D01*
X40182800Y72634891D01*
X40182800Y65769909D01*
X40114048Y65424270D01*
X39925345Y65141855D01*
X39642930Y64953152D01*
X39297291Y64884400D01*
X38150800Y64884400D01*
X38150800Y67551400D01*
X38142115Y67597559D01*
X38114835Y67639953D01*
X38073210Y67668394D01*
X38023800Y67678400D01*
X17195800Y67678400D01*
X17149641Y67669715D01*
X17107247Y67642435D01*
X17078806Y67600810D01*
X17068800Y67551400D01*
X17068800Y64884400D01*
X3206309Y64884400D01*
X2860670Y64953152D01*
X2578255Y65141855D01*
X2389552Y65424270D01*
X2320800Y65769909D01*
X2320800Y72634891D01*
X2389552Y72980530D01*
X2578255Y73262945D01*
X2860670Y73451648D01*
X3206309Y73520400D01*
X28953081Y73520400D01*
X29124746Y73449118D01*
X29124746Y73449118D01*
G37*
X29124746Y73449118D02*
X29395665Y73448882D01*
X29568753Y73520400D01*
X39297291Y73520400D01*
X39642930Y73451648D01*
X39925345Y73262945D01*
X40114048Y72980530D01*
X40182800Y72634891D01*
X40182800Y65769909D01*
X40114048Y65424270D01*
X39925345Y65141855D01*
X39642930Y64953152D01*
X39297291Y64884400D01*
X38150800Y64884400D01*
X38150800Y67551400D01*
X38142115Y67597559D01*
X38114835Y67639953D01*
X38073210Y67668394D01*
X38023800Y67678400D01*
X17195800Y67678400D01*
X17149641Y67669715D01*
X17107247Y67642435D01*
X17078806Y67600810D01*
X17068800Y67551400D01*
X17068800Y64884400D01*
X3206309Y64884400D01*
X2860670Y64953152D01*
X2578255Y65141855D01*
X2389552Y65424270D01*
X2320800Y65769909D01*
X2320800Y72634891D01*
X2389552Y72980530D01*
X2578255Y73262945D01*
X2860670Y73451648D01*
X3206309Y73520400D01*
X28953081Y73520400D01*
X29124746Y73449118D01*
M02*
