M48
;DRILL file {KiCad 4.0.7} date 11/03/18 14:19:42
;FORMAT={3:3/ absolute / metric / suppress trailing zeros}
FMAT,2
METRIC,LZ
T1C0.400
T2C0.762
T3C0.800
T4C1.000
T5C1.016
T6C1.100
T7C1.200
T8C1.500
T9C2.499
T10C3.200
%
G90
G05
M71
T1
X01491Y075121
X01491Y025121
X01491Y025121
X01491Y025121
X029261Y07413
X029261Y065773
X029261Y02413
X029261Y02413
X029261Y02413
X029261Y015773
X029261Y015773
X029261Y015773
X045974Y084138
X045974Y034138
X045974Y034138
X045974Y034138
X049733Y085027
X049733Y035027
X049733Y035027
X049733Y035027
X051283Y082334
X051283Y032334
X051283Y032334
X051283Y032334
X052121Y078829
X052121Y028829
X052121Y028829
X052121Y028829
X052794Y08382
X052794Y03382
X052794Y03382
X052794Y03382
X059665Y088608
X059665Y038608
X059665Y038608
X059665Y038608
X061265Y076187
X061265Y026187
X061265Y026187
X061265Y026187
X062738Y082004
X062738Y032004
X062738Y032004
X062738Y032004
X062967Y087084
X062967Y037084
X062967Y037084
X062967Y037084
X063497Y077805
X063497Y027805
X063497Y027805
X063497Y027805
X0635Y075797
X0635Y025797
X0635Y025797
X0635Y025797
X065278Y074765
X065278Y024765
X065278Y024765
X065278Y024765
X067Y076416
X067Y026416
X067Y026416
X067Y026416
X067005Y078956
X067005Y028956
X067005Y028956
X067005Y028956
X067818Y084671
X067818Y034671
X067818Y034671
X067818Y034671
X070739Y076035
X070739Y026035
X070739Y026035
X070739Y026035
X074221Y08683
X074221Y03683
X074221Y03683
X074221Y03683
T2
X05682Y079108
X05682Y077203
X05682Y029108
X05682Y029108
X05682Y029108
X05682Y027203
X05682Y027203
X05682Y027203
T3
X049276Y061731
X049276Y056731
X049276Y011731
X049276Y011731
X049276Y011731
X049276Y006731
X049276Y006731
X049276Y006731
X050038Y088608
X050038Y038608
X050038Y038608
X050038Y038608
X052578Y088608
X052578Y038608
X052578Y038608
X052578Y038608
X052959Y072352
X052959Y022352
X052959Y022352
X052959Y022352
X055118Y088608
X055118Y038608
X055118Y038608
X055118Y038608
X055459Y072352
X055459Y022352
X055459Y022352
X055459Y022352
T4
X01618Y083553
X01618Y065773
X01618Y033553
X01618Y033553
X01618Y033553
X01618Y015773
X01618Y015773
X01618Y015773
X01872Y083553
X01872Y065773
X01872Y033553
X01872Y033553
X01872Y033553
X01872Y015773
X01872Y015773
X01872Y015773
X02126Y083553
X02126Y065773
X02126Y033553
X02126Y033553
X02126Y033553
X02126Y015773
X02126Y015773
X02126Y015773
X0365Y083553
X0365Y065773
X0365Y033553
X0365Y033553
X0365Y033553
X0365Y015773
X0365Y015773
X0365Y015773
X03904Y083553
X03904Y065773
X03904Y033553
X03904Y033553
X03904Y033553
X03904Y015773
X03904Y015773
X03904Y015773
X04158Y083553
X04158Y065773
X04158Y033553
X04158Y033553
X04158Y033553
X04158Y015773
X04158Y015773
X04158Y015773
T5
X062865Y094577
X062865Y092037
X062865Y044577
X062865Y044577
X062865Y044577
X062865Y042037
X062865Y042037
X062865Y042037
X065405Y094577
X065405Y092037
X065405Y044577
X065405Y044577
X065405Y044577
X065405Y042037
X065405Y042037
X065405Y042037
X067945Y094577
X067945Y092037
X067945Y044577
X067945Y044577
X067945Y044577
X067945Y042037
X067945Y042037
X067945Y042037
X070485Y094577
X070485Y092037
X070485Y044577
X070485Y044577
X070485Y044577
X070485Y042037
X070485Y042037
X070485Y042037
X073025Y094577
X073025Y092037
X073025Y044577
X073025Y044577
X073025Y044577
X073025Y042037
X073025Y042037
X073025Y042037
T6
X052629Y069329
X052629Y056629
X052629Y019329
X052629Y019329
X052629Y019329
X052629Y006629
X052629Y006629
X052629Y006629
T7
X060884Y061629
X060884Y056629
X060884Y011629
X060884Y011629
X060884Y011629
X060884Y006629
X060884Y006629
X060884Y006629
X073533Y068208
X073533Y063208
X073533Y018208
X073533Y018208
X073533Y018208
X073533Y013208
X073533Y013208
X073533Y013208
T8
X01372Y089593
X01372Y059733
X01372Y039593
X01372Y039593
X01372Y039593
X01372Y009733
X01372Y009733
X01372Y009733
X02372Y089593
X02372Y059733
X02372Y039593
X02372Y039593
X02372Y039593
X02372Y009733
X02372Y009733
X02372Y009733
X03404Y089593
X03404Y059733
X03404Y039593
X03404Y039593
X03404Y039593
X03404Y009733
X03404Y009733
X03404Y009733
X04404Y089593
X04404Y059733
X04404Y039593
X04404Y039593
X04404Y039593
X04404Y009733
X04404Y009733
X04404Y009733
T9
X00602Y079743
X00602Y069583
X00602Y029743
X00602Y029743
X00602Y029743
X00602Y019583
X00602Y019583
X00602Y019583
X085014Y075552
X085014Y065392
X085014Y025552
X085014Y025552
X085014Y025552
X085014Y015392
X085014Y015392
X085014Y015392
T10
X00498Y094993
X00498Y054993
X00498Y044993
X00498Y044993
X00498Y044993
X00498Y004993
X00498Y004993
X00498Y004993
X08498Y094993
X08498Y054993
X08498Y044993
X08498Y044993
X08498Y044993
X08498Y004993
X08498Y004993
X08498Y004993
T0
M30
